<?xml version="1.0" standalone="no"?>
<!DOCTYPE svg PUBLIC "-//W3C//DTD SVG 1.1//EN" "http://www.w3.org/Graphics/SVG/1.1/DTD/svg11.dtd" >
<!--
2017-3-20: Created with FontForge (http://fontforge.org)
-->
<svg xmlns="http://www.w3.org/2000/svg" xmlns:xlink="http://www.w3.org/1999/xlink" version="1.1">
<metadata>
Created by FontForge 20160405 at Mon Mar 20 20:37:09 2017
 By Apache
Copyright (c) 2017, Apache
</metadata>
<defs>
<font id="Flaticon" horiz-adv-x="512" >
  <font-face 
    font-family="Flaticon"
    font-weight="400"
    font-stretch="normal"
    units-per-em="512"
    panose-1="2 0 5 3 0 0 0 0 0 0"
    ascent="448"
    descent="-64"
    bbox="-0.0012207 -64.001 512.013 448"
    underline-thickness="25.6"
    underline-position="-51.2"
    unicode-range="U+0020-F11E"
  />
    <missing-glyph />
    <glyph glyph-name="space" unicode=" " horiz-adv-x="200" 
 />
    <glyph glyph-name="uniF113" unicode="&#xf113;" 
d="M438.733 346.914c22.7607 -22.7568 35.2939 -53.0156 35.2939 -85.2041c0 -32.1836 -12.5332 -62.4463 -35.2939 -85.2031l-170.995 -171c-2.48828 -2.47461 -5.73438 -3.71484 -8.9834 -3.71484c-3.25 0 -6.49512 1.24023 -8.97461 3.71973l-171 170.999
c-46.9854 46.9814 -46.9854 123.426 0 170.403c22.7568 22.7607 53.0156 35.2939 85.2031 35.2939c32.1846 0 62.4473 -12.5332 85.208 -35.2939l9.56738 -9.56738l9.56738 9.56738c22.7568 22.7607 53.0156 35.2939 85.2031 35.2939
c32.1846 0 62.4473 -12.5332 85.2041 -35.2939zM420.779 194.461c37.084 37.084 37.084 97.4189 0 134.503c-17.9619 17.9629 -41.8486 27.8555 -67.2539 27.8555s-49.2871 -9.89258 -67.2539 -27.8555l-18.542 -18.542c-4.95898 -4.95898 -12.9902 -4.95898 -17.9492 0
l-18.542 18.542c-17.9668 17.9629 -41.8535 27.8555 -67.2549 27.8555c-25.4053 0 -49.2871 -9.89258 -67.249 -27.8555c-37.084 -37.084 -37.084 -97.4189 0 -134.503l162.024 -162.025zM59.2393 221.825c7.01172 0 12.6943 -5.68262 12.6943 -12.6943
s-5.68262 -12.6943 -12.6943 -12.6943h-46.5449c-7.01172 0 -12.6943 5.68262 -12.6943 12.6943s5.68262 12.6943 12.6943 12.6943h46.5449zM456.983 221.415c4.6709 0 8.46289 -3.79199 8.46289 -8.46289c0 -4.67188 -2.00586 -8.05273 -6.67773 -8.05273h-126.941
c-3.31738 0 -8.11621 1.52734 -9.4873 4.55273l-12.4863 27.4668l-39.5391 -111.426c-1.19238 -3.36816 -4.375 -5.62402 -7.9502 -5.63184h-0.0175781c-3.56641 0 -6.74902 2.2334 -7.95898 5.58496l-48.0811 133.142l-25.1641 -53.4727
c-1.39648 -2.96582 -2.59863 -4.44727 -5.87793 -4.44727h-110.017c-4.67578 0 -10.2441 3.38086 -10.2441 8.05273c0 4.6709 3.78711 8.46289 8.46289 8.46289h104.643l31.5664 67.0762c1.45605 3.09277 4.39648 5.01855 8.05273 4.84863
c3.41895 -0.160156 6.40137 -2.36523 7.56152 -5.57715l46.9766 -130.094l38.6416 108.891c1.15039 3.25391 4.16309 5.47559 7.6123 5.62305c3.5332 0.101562 6.63867 -1.81055 8.06445 -4.9541l18.9062 -41.582h121.492zM499.306 226.057
c7.01172 0 12.6943 -5.68262 12.6943 -12.6943s-5.68262 -12.6943 -12.6943 -12.6943h-38.083c-7.01074 0 -12.6934 5.68262 -12.6934 12.6943s5.68262 12.6943 12.6934 12.6943h38.083z" />
    <glyph glyph-name="uniF111" unicode="&#xf111;" 
d="M141.237 236.131c0 7.31348 5.92871 13.2412 13.2422 13.2412s13.2412 -5.92773 13.2412 -13.2412s-5.92773 -13.2422 -13.2412 -13.2422s-13.2422 5.92871 -13.2422 13.2422zM335.451 -33.1201c-29.2119 0 -52.9678 23.7559 -52.9678 52.9678
c0 29.2109 23.7559 52.9668 52.9678 52.9668c29.2109 0 52.9668 -23.7559 52.9668 -52.9668c0 -29.2119 -23.7559 -52.9678 -52.9668 -52.9678zM335.451 55.1592c-19.4746 0 -35.3115 -15.8379 -35.3115 -35.3115c0 -19.4746 15.8369 -35.3115 35.3115 -35.3115
s35.3115 15.8369 35.3115 35.3115c0 19.4736 -15.8369 35.3115 -35.3115 35.3115zM432.558 275.856c29.2031 0 52.9678 -23.7559 52.9678 -52.9678c0 -29.2109 -23.7559 -52.9668 -52.9678 -52.9668c-29.2109 0 -52.9668 23.7559 -52.9668 52.9668
c0 29.2119 23.7559 52.9678 52.9668 52.9678zM432.558 187.577c19.4746 0 35.3115 15.8369 35.3115 35.3115s-15.8369 35.3115 -35.3115 35.3115s-35.3115 -15.8369 -35.3115 -35.3115s15.8369 -35.3115 35.3115 -35.3115zM491.775 275.856
c15.0518 -16.8174 22.2373 -39.4346 19.7305 -62.043c-4.0166 -36.1055 -33.1045 -65.4502 -69.167 -69.7842c-26.7041 -3.22266 -52.6846 6.90332 -70.0488 27.1543l-147.258 35.3916c37.0498 -34.959 100.99 -95.2617 113.941 -107.356
c42.1797 -1.85352 75.9199 -36.7412 75.9199 -79.3711c0 -22.5996 -9.67578 -44.1924 -26.5371 -59.2617c-14.6104 -13.0479 -33.5635 -20.1719 -53.0996 -20.1719c-2.99316 0 -6.00293 0.167969 -9.02246 0.511719c-35.7441 4.03418 -65.0078 32.8311 -69.5811 68.4785
c-3.09863 24.2148 4.59082 47.7412 21.1602 65.1494l-112.785 112.776l-42.9121 12.8711c-14.4072 4.3252 -26.166 15.3164 -31.4541 29.4053l-19.041 50.7695l-64.9297 85.8691c-11.4678 16.0225 -7.80371 38.1182 8.0332 49.4541
c7.64551 5.46387 16.9326 7.64453 26.3252 6.08203c9.32227 -1.54492 17.4707 -6.6123 22.9521 -14.2656l33.1045 -39.9375v40.6963c-0.326172 19.0771 15.458 34.9766 35.1621 35.3115h0.573242c18.9541 0 34.5439 -15.6514 34.8789 -35.1611v-126.054l2.61328 -3.15137
c2.13672 -2.97559 3.73438 -6.00293 4.84668 -9.19043l48.377 -12.0938l129.655 -30.792c0.953125 18.6182 8.30664 36.0537 21.2129 49.9043c14.9814 16.0752 36.168 25.292 58.1318 25.292c22.5732 0 44.1572 -9.6582 59.2178 -26.4834zM114.754 408.425v-62.1396
l35.3115 -42.6123v104.602c-0.167969 9.72852 -7.86621 17.6562 -17.2236 17.6562h-0.282227c-9.97559 -0.167969 -17.9648 -8.0166 -17.8057 -17.5059zM493.956 215.765c1.98633 17.8857 -3.46094 35.0469 -15.3428 48.3154
c-11.7148 13.0918 -28.5059 20.6035 -46.0645 20.6035c-17.3379 0 -33.3867 -6.99121 -45.2158 -19.6768c-11.8125 -12.6768 -17.6475 -29.2383 -16.4199 -46.6289c0.238281 -3.35449 -1.05078 -6.46191 -3.52246 -8.56348
c-2.46289 -2.07422 -5.71191 -2.82422 -8.90723 -2.07422l-139.11 33.043l-59.1289 14.7861l-0.97168 5.66797c-0.458984 2.69238 -1.42969 5.07617 -2.85059 7.09766l-59.3242 71.5938v0.0175781l-47.0879 56.8076c-3.10742 4.30859 -7.18555 6.83301 -11.8555 7.60938
c-0.980469 0.167969 -1.97754 0.248047 -2.95703 0.248047c-3.65527 0 -7.18652 -1.12109 -10.1963 -3.27539c-7.92773 -5.66797 -9.75488 -16.7197 -4.08789 -24.6299l66.792 -88.9238l19.4922 -51.9785c3.35449 -8.95117 10.832 -15.9434 19.9951 -18.6885
l47.1934 -14.1602l118.779 -118.771c2.60449 -2.59473 4.00781 -6.05566 3.96387 -9.72754c-0.0439453 -3.69922 -1.60645 -7.30078 -4.31641 -9.87891c-14.3896 -13.7363 -21.1787 -33.0254 -18.627 -52.9404c3.54004 -27.6758 26.2715 -50.0371 54.0439 -53.1709
c17.9033 -2.04785 35.082 3.39844 48.377 15.2812c13.1094 11.7148 20.6396 28.5225 20.6396 46.0996c0 34.0752 -27.7285 61.7949 -61.7949 61.7949c-3.75195 0 -3.75195 0 -135.809 124.623l-4.48438 4.22852l8.31543 19.4131l178.783 -42.9658l1.88867 -2.38379
c13.4893 -17.002 34.4463 -25.6182 56.0928 -23.0049c28.002 3.37207 50.5928 26.166 53.7178 54.2119z" />
    <glyph glyph-name="uniF105" unicode="&#xf105;" 
d="M351.353 50.0615h-186.605c-4.52539 0 -8.19922 3.67383 -8.19922 8.19922s3.67383 8.19922 8.19922 8.19922h186.589c4.52539 0 8.19922 -3.67383 8.19922 -8.19922s-3.65723 -8.19922 -8.18262 -8.19922zM120.343 5.64062
c-29.0078 0 -52.6045 23.5967 -52.6045 52.6201c0 29.0078 23.5967 52.6035 52.6045 52.6035c29.0068 0 52.6035 -23.5957 52.6035 -52.6035s-23.5967 -52.6201 -52.6035 -52.6201zM120.343 94.4668c-19.9727 0 -36.2061 -16.2334 -36.2061 -36.2061
s16.25 -36.2227 36.2061 -36.2227c19.9551 0 36.2051 16.25 36.2051 36.2227s-16.2334 36.2061 -36.2051 36.2061zM395.757 5.64062c-29.0068 0 -52.6035 23.5967 -52.6035 52.6201c0 29.0078 23.5967 52.6035 52.6035 52.6035c29.0078 0 52.6035 -23.5957 52.6035 -52.6035
c0.0166016 -29.0078 -23.5957 -52.6201 -52.6035 -52.6201zM395.757 94.4668c-19.9717 0 -36.2061 -16.2334 -36.2061 -36.2061s16.25 -36.2227 36.2061 -36.2227s36.2061 16.25 36.2061 36.2227s-16.2334 36.2061 -36.2061 36.2061zM351.418 50.0615h-186.654
c-4.52637 0 -8.19922 3.67383 -8.19922 8.19922s3.67285 8.19922 8.19922 8.19922h186.638c4.52539 0 8.19922 -3.67383 8.19922 -8.19922s-3.65723 -8.19922 -8.18262 -8.19922zM472.793 50.0615h-32.6641c-4.52539 0 -8.19824 3.67383 -8.19824 8.19922
s3.67285 8.19922 8.19824 8.19922h32.6641c12.5771 0 22.793 10.2158 22.793 22.792v31.6641c0 11.6758 -4.75488 23.1045 -13.0361 31.3359l-36.7959 36.5674c-0.689453 0.688477 -1.2627 1.49219 -1.67285 2.37695l-30.1553 65.2627
c-6.08398 13.1514 -19.3652 21.6455 -33.8613 21.6455h-337.693c-14.3145 0.015625 -25.9736 -11.6426 -25.9736 -25.958v-162.895c0 -12.5762 10.2324 -22.792 22.793 -22.792h36.665c4.52539 0 8.19922 -3.67383 8.19922 -8.19922s-3.67383 -8.19922 -8.19922 -8.19922
h-36.665c-21.6123 0 -39.1904 17.5791 -39.1904 39.1904v162.895c0 23.3506 19.0049 42.3711 42.3711 42.3711h337.71c20.8574 0 39.9941 -12.2324 48.75 -31.1553l29.5322 -63.9346l35.7471 -35.5332c11.3633 -11.2812 17.873 -26.958 17.873 -42.9619v-31.6641
c0.0166016 -21.6123 -17.5781 -39.207 -39.1904 -39.207zM387.361 162.779h-170.585c-4.52539 0 -8.19824 3.67285 -8.19824 8.19922c0 4.52539 3.67285 8.19824 8.19824 8.19824h170.585c4.52637 0 8.19922 -3.67285 8.19922 -8.19824
c0 -4.52637 -3.67285 -8.19922 -8.19922 -8.19922zM117.407 164.107c-4.52539 0 -8.19922 3.67285 -8.19922 8.19922v61.54c0 4.52539 3.67383 8.19922 8.19922 8.19922s8.19824 -3.67383 8.19824 -8.19922v-61.5566c0 -4.52539 -3.65625 -8.18262 -8.19824 -8.18262z
M148.186 194.869h-61.5566c-4.52637 0 -8.19922 3.67383 -8.19922 8.19922s3.67285 8.19922 8.19922 8.19922h61.5566c4.52539 0 8.19922 -3.67383 8.19922 -8.19922s-3.67383 -8.19922 -8.19922 -8.19922zM353.156 278.12h-53.293
c-4.52539 0 -8.19824 3.67383 -8.19824 8.19922v11.0684c0 19.2178 15.627 34.8447 34.8447 34.8447s34.8447 -15.627 34.8447 -34.8447v-11.0684c0 -4.54199 -3.67285 -8.19922 -8.19824 -8.19922zM308.062 294.518h36.8945v2.87012
c0 10.166 -8.28027 18.4473 -18.4473 18.4473c-10.166 0 -18.4473 -8.28125 -18.4473 -18.4473v-2.87012zM326.51 343.515c-4.52539 0 -8.19824 3.67285 -8.19824 8.19824v18.4473c0 4.52637 3.67285 8.19922 8.19824 8.19922s8.19922 -3.67285 8.19922 -8.19922v-18.4473
c0 -4.52539 -3.67383 -8.19824 -8.19922 -8.19824zM359.043 330.872c-2.09863 0 -4.19824 0.802734 -5.80469 2.39355c-3.19824 3.19727 -3.19824 8.39551 0 11.5928l12.8066 12.8066c3.19727 3.19824 8.39551 3.19824 11.5928 0
c3.19727 -3.19727 3.19727 -8.39551 0 -11.5928l-12.79 -12.79c-1.60742 -1.60742 -3.70605 -2.41016 -5.80469 -2.41016zM293.977 330.872c-2.09863 0 -4.19727 0.802734 -5.80469 2.39355l-12.8066 12.8066c-3.19727 3.19727 -3.19727 8.39551 0 11.5928
c3.19824 3.19824 8.39551 3.19824 11.5938 0l12.8066 -12.8066c3.19727 -3.19727 3.19727 -8.39551 0 -11.5928c-1.59082 -1.59082 -3.68945 -2.39355 -5.78906 -2.39355z" />
    <glyph glyph-name="uniF10A" unicode="&#xf10a;" 
d="M487.132 -47.5488c4.54297 0 8.22559 -3.68359 8.22559 -8.22559c0 -4.54297 -3.68262 -8.22559 -8.22559 -8.22559h-462.265c-4.54297 0 -8.22559 3.68262 -8.22559 8.22559c0 4.54199 3.68262 8.22559 8.22559 8.22559h55.9072v16.8545
c0 38.5967 10.293 68.3867 30.5918 88.541c25.873 25.6885 58.3809 25.7188 59.7275 25.7441h41.1475v24.9336c0 0.433594 0.0439453 0.858398 0.108398 1.27539c-26.3838 10.9014 -43.0586 29.0859 -53.2119 44.8516c-15.8291 24.5771 -19.4004 48.2305 -19.5439 49.2246
c-0.0566406 0.390625 -0.0849609 0.786133 -0.0849609 1.18066v1.71875c-5.85938 1.4043 -10.9551 4.39844 -14.9902 8.86621c-11.6455 12.8936 -10.9697 33.2363 -10.1396 41.3838c0.632812 6.20312 3.43945 11.4072 8.11523 15.0508
c1.04785 0.817383 2.15527 1.51855 3.29395 2.13184c-2.85645 7.94043 -9.11523 27.2139 -11.749 50.1934c-4.62891 40.3848 4.40723 72.6621 26.1309 93.3447c18.377 17.4951 55.1377 28.4502 100.857 30.0557c43.6543 1.53027 84.8359 -5.86133 110.161 -19.7803
c19.2197 -10.5645 28.9854 -25.0703 27.9727 -41.2617c9.96289 -9.46289 30.3857 -39.2344 6.7168 -112.479c1.1875 -0.628906 2.34277 -1.35645 3.43359 -2.20605c4.67578 -3.64453 7.48145 -8.84863 8.11426 -15.0498
c0.831055 -8.14746 1.50684 -28.4893 -10.1396 -41.3838c-3.99121 -4.41797 -9.0166 -7.39941 -14.7949 -8.82422v-1.76074c0 -0.394531 -0.0283203 -0.790039 -0.0849609 -1.18066c-0.144531 -0.994141 -3.71484 -24.6475 -19.5439 -49.2246
c-10.1533 -15.7656 -26.8281 -33.9502 -53.2119 -44.8516c0.0644531 -0.416992 0.108398 -0.841797 0.108398 -1.27539v-24.9336h41.2051c1.32227 -0.00683594 33.7949 -0.0546875 59.6699 -25.7441c20.2988 -20.1553 30.5918 -49.9443 30.5918 -88.541v-16.8545h55.9062z
M341.023 67.1396h-41.9014c-2.70508 -18.3145 -16.8379 -32.9482 -34.8965 -36.4111v-78.2773h150.549v16.8545c0 34.0518 -8.65723 59.915 -25.7314 76.8662c-21.0664 20.916 -47.7148 20.9346 -48.0195 20.9678zM256.131 342.594
c-50.0078 0 -72.4834 -8.13184 -80.0859 -11.8057v-17.9619c0 -2.26855 -0.936523 -4.43652 -2.58887 -5.99023l-17.498 -16.4678v-49.0029c7.93652 -7.59961 49.0469 -44.3633 101.88 -44.8428c34.5264 -0.313477 67.5674 14.8447 98.2021 45.0381v49.0547
l-17.2373 16.2207c-1.65234 1.55469 -2.58887 3.72168 -2.58887 5.99023v17.9619c-7.59961 3.6748 -30.0762 11.8057 -80.083 11.8057zM155.959 209.393c6.26172 -7.03223 48.0586 -51.5684 102.034 -52.082c34.373 -0.359375 67.3682 17.208 98.0469 52.1025v9.78711
c-30.2998 -25.9844 -62.9014 -39.1318 -97.1328 -39.1318c-0.458984 0 -0.916992 0.00292969 -1.37598 0.00683594c-45.9453 0.47168 -82.876 24.4053 -101.572 39.4238v-10.1064zM375.077 226.669c5.90039 6.53418 6.95898 19.1035 5.98242 28.6875
c-0.224609 2.19531 -1.06641 3.125 -1.86133 3.74414c-1.62793 1.26758 -4.1748 1.9209 -6.70703 2.21582v-36.8506c0.932617 0.605469 1.7959 1.32715 2.58594 2.20312zM151.513 405.831c-35.623 -33.916 -19.4199 -97.8213 -12.0088 -120.806v8.56836
c0 1.16797 0.248047 2.27734 0.686523 3.28418c0.423828 1.19043 1.12207 2.30273 2.10449 3.22656l17.2969 16.2773v19.1279c0 2.46582 1.10742 4.80273 3.0166 6.36621c2.14844 1.75684 23.0234 17.1689 93.5186 17.1689c70.4961 0 91.3701 -15.4121 93.5186 -17.1689
c1.90918 -1.56348 3.01758 -3.89941 3.01758 -6.36621v-19.1299l17.2959 -16.2764c1.95801 -1.8418 2.80273 -4.41406 2.53027 -6.89355v-6.49805c10.5918 36.125 8.79297 58.25 5.12793 70.7344c-3.93164 13.3936 -10.5059 18.1523 -11.3438 18.7139
c-3.20996 1.69141 -4.625 5.13086 -3.91895 8.70117c2.15918 10.9238 -4.26367 20.5938 -19.0928 28.7441c-22.4951 12.3633 -61.4473 19.168 -101.657 17.7549c-41.1377 -1.44434 -74.8174 -10.9883 -90.0918 -25.5293zM136.728 226.669
c0.84375 -0.935547 1.77441 -1.69629 2.78125 -2.32422v36.9912c-2.61523 -0.282227 -5.25586 -0.941406 -6.9209 -2.24902c-0.786133 -0.619141 -1.61914 -1.54492 -1.8418 -3.73047c-0.977539 -9.58398 0.0810547 -22.1553 5.98145 -28.6875zM173.296 163.052
c18.4336 -28.293 46.002 -43.8525 81.9395 -46.2471h1.5293c35.9365 2.39453 63.5059 17.9541 81.9395 46.2471c2.95508 4.53711 5.43164 9.06152 7.50781 13.3838c-27.4346 -23.6328 -56.6787 -35.5811 -87.2539 -35.5811
c-0.417969 0 -0.829102 0.00195312 -1.24707 0.00683594c-39.5537 0.418945 -72.376 20.667 -92.75 37.3291c2.23535 -4.84473 4.97559 -9.9834 8.33496 -15.1387zM254.434 100.371c-9.32031 0.604492 -17.875 2.00879 -25.7432 4.02246v-29.0283
c0 -0.0517578 -0.00683594 -0.102539 -0.0078125 -0.154297c0.112305 -0.540039 0.172852 -1.10156 0.172852 -1.67676c0 -14.9668 12.1768 -27.1436 27.1445 -27.1436s27.1445 12.1768 27.1445 27.1436c0 0.575195 0.0605469 1.13672 0.172852 1.67676
c-0.000976562 0.0517578 -0.0078125 0.102539 -0.0078125 0.154297v29.0283c-7.86816 -2.01367 -16.4209 -3.41797 -25.7432 -4.02246c-0.176758 -0.0117188 -0.354492 -0.0175781 -0.532227 -0.0175781h-2.06836c-0.177734 0 -0.355469 0.00683594 -0.532227 0.0175781z
M97.2246 -30.6943v-16.8545h36.126v29.042c0 4.54297 3.68262 8.22559 8.22559 8.22559h7.12598v24.0361c0 4.54297 3.68262 8.22559 8.22559 8.22559h3.47461v12.4766h-3.47461c-4.54297 0 -8.22559 3.68262 -8.22559 8.22559s3.68262 8.22559 8.22559 8.22559h23.7637
c4.54297 0 8.22559 -3.68262 8.22559 -8.22559s-3.68262 -8.22559 -8.22559 -8.22559h-3.83887v-12.4766h3.47461c4.54297 0 8.22559 -3.68262 8.22559 -8.22559v-24.0361h6.99414c4.54199 0 8.22461 -3.68262 8.22461 -8.22559v-29.042h44.0029v78.2773
c-18.0586 3.46289 -32.1914 18.0977 -34.8965 36.4111h-41.8428c-3.04297 0 -73.8105 -1.12891 -73.8105 -97.834zM165.152 5.53125v-15.8115h6.94824v15.8115h-6.94824zM149.8 -26.7314v-20.8164h37.5205v20.8164h-37.5205zM187.797 273.436
c0 5.42188 4.39551 9.81738 9.81738 9.81738c5.4209 0 9.81641 -4.39551 9.81641 -9.81738c0 -5.4209 -4.39551 -9.81641 -9.81641 -9.81641c-5.42188 0 -9.81738 4.39551 -9.81738 9.81641zM304.569 273.436c0 5.42188 4.39551 9.81738 9.81641 9.81738
c5.42188 0 9.81738 -4.39551 9.81738 -9.81738c0 -5.4209 -4.39551 -9.81641 -9.81738 -9.81641c-5.4209 0 -9.81641 4.39551 -9.81641 9.81641zM255.683 215.608c-15.333 0 -20.8984 10.2246 -20.8975 17.0967c0 4.54199 3.68262 8.22559 8.22559 8.22559
c4.38086 0 7.96289 -3.42773 8.21094 -7.74805c0.177734 -0.482422 1.62891 -1.12402 4.46094 -1.12402c3.0459 0 4.71191 0.81543 5.08301 2.48828v56.4561c0 4.54297 3.68262 8.22559 8.22461 8.22559c4.54297 0 8.22559 -3.68262 8.22559 -8.22559v-57.0303
c0 -0.170898 -0.00488281 -0.341797 -0.0166016 -0.513672c-0.448242 -7.17578 -6.54785 -17.8506 -21.5166 -17.8506z" />
    <glyph glyph-name="uniF103" unicode="&#xf103;" 
d="M447.041 346.463c63.7266 -61.0986 82.1816 -149.431 48.1533 -230.527c-33.3428 -79.4736 -107.862 -128.989 -189.653 -127.149c-2.04785 -0.251953 -7.60938 -0.81543 -15.9639 -0.81543c-24.25 0 -72.0732 4.72852 -126.334 35.5898
c-4.81543 -3.9043 -12.6592 -8.53809 -23.2617 -9.25781c-2.6543 -0.165039 -5.32715 0 -8.00781 0.3125c-0.607422 -0.129883 -1.17969 -0.364258 -1.83105 -0.364258c-1.83008 0 -3.42676 0.693359 -4.82324 1.65723c-11.5654 3.0625 -23.3477 10.4893 -35.2949 22.4365
c-3.69629 3.69629 -8.32031 4.81543 -12.6592 2.99316c-8.04199 -3.33203 -16.6318 -16.8057 -16.6318 -44.6396c0 -4.79785 -3.88672 -8.67578 -8.67578 -8.67578c-4.79004 0 -8.67676 3.87793 -8.67676 8.67578c0 44.5352 19.1221 57.2637 27.3564 60.6641
c10.8359 4.45996 22.9219 1.8916 31.5723 -6.75879c13.041 -13.0312 25.6475 -19.7295 36.2402 -19c10.4814 0.589844 16.3291 7.78223 16.5723 8.08594l4.72852 5.93457l6.56738 -3.80859c73.5312 -43.9893 136.858 -35.833 137.492 -35.7295l0.719727 0.104492
l0.746094 -0.0175781c26.957 -0.911133 52.9688 4.5293 76.707 15.123c-0.113281 0.546875 -0.330078 1.0498 -0.330078 1.63086c0 4.78906 3.88672 8.67676 8.67578 8.67676c2.57715 0 4.83301 -1.18066 6.4209 -2.96777c6.31641 3.55762 12.3809 7.5918 18.2637 11.9121
c-4.12988 0.676758 -7.33203 4.0957 -7.33203 8.40723c0 4.79004 3.88672 8.67676 8.67676 8.67676c4.78906 0 8.67578 -3.88672 8.67578 -8.67676c0 -0.216797 -0.104492 -0.389648 -0.129883 -0.598633c6.62012 5.58789 12.8838 11.6611 18.7578 18.2119
c-0.433594 -0.0693359 -0.824219 -0.260742 -1.28418 -0.260742c-4.78906 0 -8.67578 3.88672 -8.67578 8.67676c0 4.78906 3.88672 8.67578 8.67578 8.67578c4.71973 0 8.51172 -3.78223 8.63281 -8.46777c4.65918 5.85645 8.99707 12.0342 13.0234 18.498
c-2.52539 1.51758 -4.30371 4.16406 -4.30371 7.32227c0 4.78906 3.88672 8.67578 8.67578 8.67578c1.50977 0 2.86328 -0.485352 4.0957 -1.16211c2.34277 4.58984 4.56348 9.29199 6.59375 14.1338c24.4326 58.2432 25.6641 144.328 -44.1621 211.282
c-34.7998 33.3691 -68.7412 48.2051 -100.904 44.0322c-47.3457 -6.11719 -75.9336 -51.9531 -76.2197 -52.4219l-3.07227 -5.00586l-5.80371 0.980469c-59.71 10.2637 -71.249 60.9678 -71.709 63.1191c-1.00684 4.69336 1.97852 9.30957 6.66309 10.3076
c4.68555 1.05762 9.27539 -1.96094 10.2988 -6.62891c0.381836 -1.70898 9.14453 -38.4355 52.2568 -48.5957c9.7002 13.5869 39.3027 49.4287 85.209 55.4326c37.6289 4.92773 76.4551 -11.4619 115.289 -48.6992zM55.5713 100.206
c-25.3604 -15.0967 -38.2188 -49.9229 -38.2188 -103.508c0 -4.79785 -3.88672 -8.67578 -8.67676 -8.67578c-4.78906 0 -8.67578 3.87793 -8.67578 8.67578c0 60.1699 15.7295 100.028 46.7471 118.465c40.4834 24.042 93.2871 3.25391 111.107 -5.0752
c24.3809 23.9551 55.4756 22.1328 70.7031 19.3389c7.50488 21.5605 29.8027 34.332 40.4043 39.3379v36.9268c-21.6035 13.3955 -27.8506 37.3164 -29.6465 49.168c-107.992 22.9053 -123.592 102.058 -124.217 105.485c-0.859375 4.71094 2.27344 9.22266 6.98438 10.0811
c4.71973 0.911133 9.20508 -2.26465 10.082 -6.94922c0.572266 -3.01953 15.166 -74.0078 116.686 -92.8359l6.87207 -1.27539l0.216797 -6.99219c0.0175781 -0.287109 1.45703 -31.9111 25.543 -43.8242l4.83203 -2.38574v-59.1191l-5.65625 -2.11719
c-0.347656 -0.129883 -34.1504 -13.0576 -37.0742 -37.0215l-1.28418 -10.542l-10.0723 3.36719c-1.60547 0.511719 -40.4746 12.7627 -65.8525 -16.9277l-4.55469 -5.33594l-6.17773 3.34863c-0.0605469 0.0351562 -0.876953 0.451172 -2.08203 1.0498
c-0.676758 0.217773 -1.27539 0.529297 -1.86621 0.894531c-13.8379 6.55859 -62.1211 26.6875 -96.123 6.44629zM381.753 127.041c0 4.79199 3.88477 8.67676 8.67578 8.67676c4.79199 0 8.67676 -3.88477 8.67676 -8.67676
c0 -4.79102 -3.88477 -8.67578 -8.67676 -8.67578c-4.79102 0 -8.67578 3.88477 -8.67578 8.67578zM433.811 127.041c0 4.79199 3.88379 8.67676 8.67578 8.67676s8.67578 -3.88477 8.67578 -8.67676c0 -4.79102 -3.88379 -8.67578 -8.67578 -8.67578
s-8.67578 3.88477 -8.67578 8.67578zM459.839 153.07c0 4.79102 3.88477 8.67578 8.67578 8.67578c4.79199 0 8.67676 -3.88477 8.67676 -8.67578c0 -4.79199 -3.88477 -8.67676 -8.67676 -8.67676c-4.79102 0 -8.67578 3.88477 -8.67578 8.67676zM199.553 101.013
c0 4.79199 3.88477 8.67578 8.67578 8.67578c4.79199 0 8.67676 -3.88379 8.67676 -8.67578s-3.88477 -8.67578 -8.67676 -8.67578c-4.79102 0 -8.67578 3.88379 -8.67578 8.67578zM251.609 101.013c0 4.79199 3.88477 8.67578 8.67676 8.67578
s8.67578 -3.88379 8.67578 -8.67578s-3.88379 -8.67578 -8.67578 -8.67578s-8.67676 3.88379 -8.67676 8.67578zM303.667 101.013c0 4.79199 3.88477 8.67578 8.67578 8.67578c4.79199 0 8.67676 -3.88379 8.67676 -8.67578s-3.88477 -8.67578 -8.67676 -8.67578
c-4.79102 0 -8.67578 3.88379 -8.67578 8.67578zM355.725 101.013c0 4.79199 3.88379 8.67578 8.67578 8.67578s8.67676 -3.88379 8.67676 -8.67578s-3.88477 -8.67578 -8.67676 -8.67578s-8.67578 3.88379 -8.67578 8.67578zM407.781 101.013
c0 4.79199 3.88477 8.67578 8.67676 8.67578c4.79102 0 8.67578 -3.88379 8.67578 -8.67578s-3.88477 -8.67578 -8.67578 -8.67578c-4.79199 0 -8.67676 3.88379 -8.67676 8.67578zM121.467 74.9844c0 4.79102 3.88477 8.67578 8.67578 8.67578
c4.79199 0 8.67676 -3.88477 8.67676 -8.67578c0 -4.79199 -3.88477 -8.67676 -8.67676 -8.67676c-4.79102 0 -8.67578 3.88477 -8.67578 8.67676zM173.524 74.9844c0 4.79102 3.88379 8.67578 8.67578 8.67578s8.67578 -3.88477 8.67578 -8.67578
c0 -4.79199 -3.88379 -8.67676 -8.67578 -8.67676s-8.67578 3.88477 -8.67578 8.67676zM199.553 48.9551c0 4.79199 3.88477 8.67676 8.67578 8.67676c4.79199 0 8.67676 -3.88477 8.67676 -8.67676c0 -4.79102 -3.88477 -8.67578 -8.67676 -8.67578
c-4.79102 0 -8.67578 3.88477 -8.67578 8.67578zM225.581 74.9844c0 4.79102 3.88477 8.67578 8.67676 8.67578c4.79102 0 8.67578 -3.88477 8.67578 -8.67578c0 -4.79199 -3.88477 -8.67676 -8.67578 -8.67676c-4.79199 0 -8.67676 3.88477 -8.67676 8.67676z
M277.639 74.9844c0 4.79102 3.88379 8.67578 8.67578 8.67578s8.67676 -3.88477 8.67676 -8.67578c0 -4.79199 -3.88477 -8.67676 -8.67676 -8.67676s-8.67578 3.88477 -8.67578 8.67676zM225.581 22.9268c0 4.79199 3.88477 8.67676 8.67676 8.67676
c4.79102 0 8.67578 -3.88477 8.67578 -8.67676s-3.88477 -8.67578 -8.67578 -8.67578c-4.79199 0 -8.67676 3.88379 -8.67676 8.67578zM277.639 22.9268c0 4.79199 3.88379 8.67676 8.67578 8.67676s8.67676 -3.88477 8.67676 -8.67676s-3.88477 -8.67578 -8.67676 -8.67578
s-8.67578 3.88379 -8.67578 8.67578zM251.609 48.9551c0 4.79199 3.88477 8.67676 8.67676 8.67676s8.67578 -3.88477 8.67578 -8.67676c0 -4.79102 -3.88379 -8.67578 -8.67578 -8.67578s-8.67676 3.88477 -8.67676 8.67578zM303.667 48.9551
c0 4.79199 3.88477 8.67676 8.67578 8.67676c4.79199 0 8.67676 -3.88477 8.67676 -8.67676c0 -4.79102 -3.88477 -8.67578 -8.67676 -8.67578c-4.79102 0 -8.67578 3.88477 -8.67578 8.67578zM329.695 74.9844c0 4.79102 3.88477 8.67578 8.67676 8.67578
s8.67578 -3.88477 8.67578 -8.67578c0 -4.79199 -3.88379 -8.67676 -8.67578 -8.67676s-8.67676 3.88477 -8.67676 8.67676zM381.753 74.9844c0 4.79102 3.88477 8.67578 8.67578 8.67578c4.79199 0 8.67676 -3.88477 8.67676 -8.67578
c0 -4.79199 -3.88477 -8.67676 -8.67676 -8.67676c-4.79102 0 -8.67578 3.88477 -8.67578 8.67676zM329.695 22.9268c0 4.79199 3.88477 8.67676 8.67676 8.67676s8.67578 -3.88477 8.67578 -8.67676s-3.88379 -8.67578 -8.67578 -8.67578
s-8.67676 3.88379 -8.67676 8.67578zM355.725 48.9551c0 4.79199 3.88379 8.67676 8.67578 8.67676s8.67676 -3.88477 8.67676 -8.67676c0 -4.79102 -3.88477 -8.67578 -8.67676 -8.67578s-8.67578 3.88477 -8.67578 8.67578z" />
    <glyph glyph-name="uniF117" unicode="&#xf117;" 
d="M59.7334 430.933c-4.71973 0 -8.5332 3.82422 -8.5332 8.53418s3.81348 8.5332 8.5332 8.5332h51.1992c3.49023 0 6.62207 -2.125 7.91895 -5.35938l31.9922 -79.9736h147.822c23.5273 0 42.667 -19.1406 42.667 -42.667v-17.0664
c0 -4.70996 -3.82324 -8.53223 -8.5332 -8.53223h-153.6c-4.71875 0 -8.5332 3.82227 -8.5332 8.53223s3.81445 8.5332 8.5332 8.5332h145.065v8.5332c0 14.1143 -11.4854 25.5996 -25.5996 25.5996h-145.067v-51.1992c0 -4.70996 -3.82227 -8.5332 -8.53223 -8.5332
c-4.71973 0 -8.5332 3.82324 -8.5332 8.5332v58.0947l-31.377 78.4375h-45.4229zM170.667 174.933c37.6396 0 68.2656 -30.626 68.2666 -68.2666c0 -37.6406 -30.626 -68.2666 -68.2666 -68.2666s-68.2666 30.626 -68.2666 68.2666s30.626 68.2666 68.2666 68.2666z
M170.667 55.4668c28.2275 0 51.2002 22.9629 51.2002 51.2002s-22.9727 51.2002 -51.2002 51.2002c-28.2373 0 -51.2002 -22.9629 -51.2002 -51.2002s22.9629 -51.2002 51.2002 -51.2002zM170.923 115.2c4.70996 0 8.5332 -3.82324 8.5332 -8.5332
s-3.82324 -8.5332 -8.5332 -8.5332c-4.71875 0 -8.57617 3.82324 -8.57617 8.5332s3.78027 8.5332 8.48242 8.5332h0.09375zM267.213 203.213c0.119141 -0.120117 0.162109 -0.272461 0.262695 -0.401367c24.5254 -24.6943 39.7236 -58.6748 39.7236 -96.1445
c0 -37.4785 -15.207 -71.4668 -39.7402 -96.1709c-0.0927734 -0.111328 -0.135742 -0.255859 -0.24707 -0.367188c-0.110352 -0.110352 -0.255859 -0.15332 -0.375 -0.24707c-24.6865 -24.5498 -58.6934 -39.748 -96.1709 -39.748
c-37.5215 0 -71.5352 15.2236 -96.2393 39.7988c-0.0849609 0.0849609 -0.212891 0.111328 -0.306641 0.196289c-0.0849609 0.09375 -0.111328 0.22168 -0.205078 0.316406c-24.5674 24.7041 -39.7822 58.709 -39.7822 96.2217c0 37.4873 15.1982 71.4746 39.7402 96.1787
c0.110352 0.111328 0.144531 0.265625 0.24707 0.367188c0.110352 0.119141 0.263672 0.154297 0.375 0.255859c24.7041 24.5332 58.6836 39.7314 96.1709 39.7314c37.4619 0 71.4502 -15.1895 96.1367 -39.7139c0.12793 -0.111328 0.298828 -0.145508 0.410156 -0.273438z
M260.847 28.5518c18.1934 20.9756 29.2861 48.248 29.2861 78.1152s-11.1006 57.1484 -29.2861 78.1143l-5.70898 -5.7002c-1.66406 -1.66406 -3.84766 -2.5 -6.03223 -2.5s-4.36914 0.835938 -6.0332 2.5c-3.33691 3.33691 -3.33691 8.73926 0 12.0752l5.7002 5.7002
c-20.9678 18.1846 -48.2393 29.2773 -78.1064 29.2773s-57.1484 -11.0928 -78.1143 -29.2773l5.7002 -5.70898c3.33691 -3.32812 3.33691 -8.72949 0 -12.0664c-1.66406 -1.66406 -3.84766 -2.5 -6.0332 -2.5c-2.18359 0 -4.35938 0.835938 -6.0332 2.5l-5.69922 5.70898
c-18.1846 -20.9746 -29.2861 -48.248 -29.2861 -78.123c0 -29.8672 11.0928 -57.1396 29.2773 -78.1152l5.70898 5.7168c3.33691 3.32812 8.73828 3.32812 12.0664 0c3.33691 -3.33594 3.33691 -8.7373 0 -12.0654l-5.70898 -5.7168
c20.9668 -18.1846 48.248 -29.2861 78.123 -29.2861s57.1484 11.1006 78.1143 29.2861l-5.70898 5.7168c-3.33691 3.32812 -3.33691 8.72852 0 12.0654c3.33594 3.32812 8.7373 3.32812 12.0654 0zM477.867 20.4707c19.4473 -3.96777 34.1328 -21.1953 34.1328 -41.8037
c0 -23.5273 -19.1396 -42.667 -42.666 -42.665c-23.5273 0 -42.667 19.1406 -42.667 42.667c0 20.6084 14.6768 37.8369 34.1328 41.8047v137.396h-106.266c-4.71875 0 -8.5332 3.82324 -8.5332 8.5332s3.81445 8.53223 8.5332 8.53223h106.266v8.5332
c0 14.1143 -11.4854 25.6006 -25.5996 25.6006h-106.139c-4.71875 0 -8.53223 3.82227 -8.53223 8.53223s3.81348 8.5332 8.53223 8.5332h106.139c23.5264 0 42.667 -19.1406 42.667 -42.667v-17.0664v-145.93zM469.333 -46.9326c14.1152 0 25.5996 11.4844 25.5996 25.5996
c0 11.1113 -7.15918 20.4893 -17.0664 24.0303v-24.0303c0 -4.70996 -3.82324 -8.5332 -8.5332 -8.5332c-4.71875 0 -8.5332 3.82324 -8.5332 8.5332v24.0303c-9.9082 -3.54102 -17.0664 -12.9199 -17.0664 -24.0303c0 -14.1143 11.4766 -25.5996 25.5996 -25.5996z
M170.667 277.333c94.1055 0 170.667 -76.5596 170.667 -170.666s-76.5605 -170.667 -170.667 -170.667c-94.1143 0 -170.667 76.5615 -170.667 170.667s76.5527 170.666 170.667 170.666zM170.667 -46.9326c84.6934 0 153.6 68.9062 153.6 153.6
s-68.9062 153.6 -153.6 153.6s-153.6 -68.9062 -153.6 -153.6s68.9062 -153.6 153.6 -153.6z" />
    <glyph glyph-name="uniF110" unicode="&#xf110;" 
d="M396.8 183.467c37.6406 0 68.2666 -30.626 68.2666 -68.2666s-30.626 -68.2666 -68.2666 -68.2666c-34.7471 0 -63.4541 26.1113 -67.6777 59.7334h-94.4551v-76.8008c0 -51.7539 -42.1123 -93.8662 -93.8672 -93.8662s-93.8662 42.1123 -93.8662 93.8662
c0 51.7549 42.1113 93.8672 93.8662 93.8672h76.7998v52.2666c-8.87402 2.20996 -16.5459 7.8252 -21.376 15.9746l-113.34 186.385c-6.50195 10.9658 -6.61328 24.0215 -0.349609 35.0127c6.26367 10.9902 17.5537 17.5615 30.208 17.5615h22.5195
c4.8125 10.0518 15.002 17.0664 26.8721 17.0664c13.6191 0 46.9326 -10.4707 46.9326 -29.8662c0 -19.3965 -33.3135 -29.8672 -46.9326 -29.8672c-15.002 0 -27.3408 11.1621 -29.4404 25.5996h-19.9512c-6.43359 0 -12.1855 -3.34473 -15.377 -8.94238
c-3.19141 -5.58984 -3.13184 -12.2451 0.15332 -17.7832l113.332 -186.386c3.27637 -5.5127 8.96777 -8.75488 15.2832 -8.75488c6.31445 0 12.0059 3.24219 15.2227 8.66992l110.251 186.462c3.28516 5.54688 3.34473 12.2021 0.15332 17.792
c-3.18262 5.59766 -8.93359 8.94238 -15.377 8.94238h-16.8193c-2.08984 -14.4375 -14.4297 -25.5996 -29.4307 -25.5996c-13.6201 0 -46.9336 10.4707 -46.9336 29.8672c0 19.3955 33.3135 29.8662 46.9336 29.8662c11.8691 0 22.0586 -7.01465 26.8711 -17.0664h19.3877
c12.6553 0 23.9443 -6.5625 30.208 -17.5537c6.26367 -10.9902 6.15234 -24.0547 -0.298828 -34.9355l-110.251 -186.461c-4.83789 -8.14941 -12.5098 -13.7734 -21.3838 -15.9834v-52.2666h94.4551c4.22363 33.6211 32.9307 59.7334 67.6777 59.7334zM290.134 405.333
c7.05664 0 12.7998 5.74316 12.7998 12.8008c0 7.05664 -5.74316 12.7998 -12.7998 12.7998c-10.5303 0 -28.6553 -8.43945 -29.8496 -12.7998c1.19434 -4.36133 19.3193 -12.8008 29.8496 -12.8008zM162.134 430.934c-7.05762 0 -12.8008 -5.74316 -12.8008 -12.7998
c0 -7.05762 5.74316 -12.8008 12.8008 -12.8008c10.5293 0 28.6543 8.43945 29.8496 12.8008c-1.19531 4.36035 -19.3203 12.7998 -29.8496 12.7998zM217.6 29.8662v76.8008h-76.7998c-42.3418 0 -76.7998 -34.4492 -76.7998 -76.8008
c0 -42.3506 34.458 -76.7998 76.7998 -76.7998c42.3428 0 76.7998 34.4492 76.7998 76.7998zM396.8 64c28.2373 0 51.2002 22.9629 51.2002 51.2002c0 28.2363 -22.9629 51.2002 -51.2002 51.2002c-28.2363 0 -51.2002 -22.9639 -51.2002 -51.2002
c0 -28.2373 22.9639 -51.2002 51.2002 -51.2002zM396.8 149.333c18.8252 0 34.1338 -15.3086 34.1338 -34.1328c0 -18.8252 -15.3086 -34.1338 -34.1338 -34.1338c-18.8242 0 -34.1328 15.3086 -34.1328 34.1338c0 18.8242 15.3086 34.1328 34.1328 34.1328zM396.8 98.1338
c9.41211 0 17.0664 7.6543 17.0664 17.0664s-7.6543 17.0664 -17.0664 17.0664s-17.0664 -7.6543 -17.0664 -17.0664s7.6543 -17.0664 17.0664 -17.0664z" />
    <glyph glyph-name="uniF10C" unicode="&#xf10c;" 
d="M477.278 136.213c19.1406 0 34.7305 -15.5811 34.7305 -34.7314c0 -19.1494 -15.5898 -34.7305 -34.7305 -34.7305h-54.4756v-54.4746c0 -19.1504 -15.5889 -34.7305 -34.7305 -34.7305c-19.1582 0 -34.7393 15.5801 -34.7393 34.7305v12.3086
c-4.35645 -2.89551 -8.7832 -5.76562 -13.2803 -8.58203l-7.2168 -4.58398c-22.3691 -14.2949 -53.0146 -33.8652 -84.4814 -33.8652c-31.4678 0 -62.1045 19.5791 -84.4824 33.8652l-7.2168 4.58398c-27.0322 16.9453 -51.1426 35.0889 -71.666 53.9326
c-26.0439 23.918 -46.418 49.1211 -60.5469 74.8936c-15.2393 25.9131 -23.7246 56.1729 -24.3984 87.2812l-0.0439453 4.05957c0 45.333 16.2197 87.999 45.6484 120.131c29.6387 32.334 69.0938 50.1455 111.111 50.1455c32.8057 0 65.0518 -11.3467 91.5947 -32.0889
c26.542 20.7422 58.7969 32.0889 91.6025 32.0889c42.0176 0 81.4814 -17.8115 111.12 -50.1543c29.4287 -32.1318 45.6484 -74.7979 45.6484 -120.131l-0.0439453 -4.05957c-0.673828 -31.1172 -9.15918 -61.3682 -24.5303 -87.5088
c-1.49512 -2.72852 -3.16699 -5.55469 -4.88086 -8.37988h10.0078zM330.771 30.8223c7.75977 4.86426 15.3271 9.89453 22.5615 14.9424v20.9863h-54.4756c-19.1494 0 -34.7305 15.5811 -34.7305 34.7305c0 19.1504 15.5898 34.7314 34.7305 34.7314h54.4756v54.4746
c0 19.1504 15.5898 34.7305 34.7393 34.7305c19.1504 0 34.7305 -15.5801 34.7305 -34.7305v-54.4746h23.708c3.81445 5.68555 7.33984 11.3984 10.4189 17.0234c13.9971 23.7959 21.6436 51.1162 22.2471 79.2334l0.0439453 3.7002
c0 40.9502 -14.5752 79.417 -41.0469 108.312c-26.2891 28.6768 -61.168 44.4668 -98.2168 44.4668c-31.0127 0 -61.5088 -11.5566 -85.8906 -32.5342c-3.28027 -2.82617 -8.13574 -2.82617 -11.416 0c-24.3818 20.9775 -54.8779 32.5342 -85.8906 32.5342
c-37.0488 0 -71.9277 -15.79 -98.2168 -44.4756c-26.4717 -28.8867 -41.0469 -67.3535 -41.0469 -108.304l0.0527344 -3.7002c0.603516 -28.1172 8.25 -55.4375 22.1162 -79.0059c13.3408 -24.3291 32.5342 -48.0273 57.1689 -70.6504
c19.7275 -18.1182 42.9893 -35.6055 69.1201 -51.9912l7.34863 -4.66309c21.6953 -13.8574 48.6924 -31.1084 75.0596 -31.1084c26.3682 0 53.3652 17.251 75.0605 31.1084zM477.278 84.248c9.5 0 17.2256 7.7334 17.2344 17.2334
c0 9.50098 -7.73438 17.2344 -17.2344 17.2344h-63.2236c-4.83789 0 -8.74805 3.91895 -8.74805 8.74805v63.2236c0 9.50098 -7.7334 17.2344 -17.2344 17.2344c-9.50977 0 -17.2432 -7.7334 -17.2432 -17.2344v-63.2236c0 -4.8291 -3.91016 -8.74805 -8.74805 -8.74805
h-63.2236c-9.5 0 -17.2334 -7.7334 -17.2334 -17.2344c0 -9.5 7.7334 -17.2334 17.2334 -17.2334h63.2236c4.83789 0 8.74805 -3.91992 8.74805 -8.74805v-63.2236c0 -9.50098 7.7334 -17.2344 17.2432 -17.2344c9.50098 0 17.2344 7.7334 17.2344 17.2344v63.2236
c0 4.82812 3.91016 8.74805 8.74805 8.74805h63.2236z" />
    <glyph glyph-name="uniF11E" unicode="&#xf11e;" 
d="M480.031 351.596c20.0098 -75.6348 -0.941406 -162.676 -19.4219 -239.468c-3.28418 -13.6416 -6.50391 -26.9854 -9.39941 -39.9209l-2.57812 -11.6963c-7.34473 -33.4707 -14.9531 -68.0811 -32.6836 -99.1543c-9.70605 -16.998 -20.7246 -24.9492 -32.457 -23.791
c-22.4707 2.30664 -36.7002 37.0889 -47.6553 70.8213c-2.58691 7.97852 -4.82129 16.5273 -6.97461 24.7959c-7.5625 28.9648 -15.3779 58.917 -40.2998 73.7617c-37.3691 22.2715 -66.5703 -12.2129 -77.3984 -28.0518
c-14.2842 -20.8877 -22.208 -44.1543 -30.6025 -68.7871c-3.32031 -9.75195 -6.75781 -19.8379 -10.6201 -29.7432c-5.70898 -14.6729 -13.542 -34.7734 -34.4844 -43.6387l-1.69141 -0.714844h-1.83594c-22.8145 0 -35.9229 31.915 -43.7471 50.9746l-1.08594 2.63281
c-31.5439 76.1592 -43.8008 160.496 -55.6787 242.056c-1.64648 11.3164 -3.27441 22.5791 -4.96582 33.751c-14.2119 94.4141 31.7334 155.222 83.5674 173.595c38.3105 13.5684 88.2178 2.02637 127.433 -9.52637c13.7227 -4.04297 13.7227 -4.03418 22.0723 -0.813477
c2.63281 1.02246 5.8623 2.2793 10.0684 3.73633c0.914062 0.316406 1.76367 0.696289 2.6416 1.07617l1.64648 0.696289c50.1963 20.7793 105.812 17.9385 145.162 -7.35449c31.9238 -20.5078 53.5898 -47.2295 60.9893 -75.2363zM443.015 116.361
c17.9834 74.7119 38.373 159.392 19.5303 230.612c-6.25098 23.6191 -25.1748 46.5781 -53.29 64.6523c-34.4385 22.1445 -83.6592 24.3789 -128.446 5.86133l-1.34766 -0.579102c-1.33008 -0.578125 -2.6416 -1.13086 -3.96191 -1.5918
c-3.92578 -1.36621 -6.94727 -2.54199 -9.41699 -3.50098h-0.00878906c41.3398 -29.6533 41.4131 -54.0234 41.2139 -105.758l-0.0273438 -11.877c0 -5.00293 -4.04395 -9.04688 -9.0459 -9.04688c-5.00293 0 -9.0459 4.04395 -9.0459 9.04688l0.0263672 11.9404
c0.235352 59.0254 0.235352 73.3096 -57.8672 106.318c-23.4844 6.89355 -53.9697 14.5732 -81.6328 14.5732c-12.0127 0 -23.4922 -1.45605 -33.624 -5.03809c-62.2188 -22.0635 -80.8535 -93.166 -71.7178 -153.865c1.68262 -11.1904 3.32031 -22.4795 4.97559 -33.832
c11.7061 -80.4561 23.8008 -163.662 54.4854 -237.731l1.10352 -2.6875c4.24219 -10.3486 15.1973 -36.998 25.4463 -39.5586c11.5244 5.85352 16.9346 17.7852 22.7236 32.6387c3.72754 9.53516 7.09277 19.4307 10.3584 29.0107
c8.41211 24.6963 17.1152 50.2334 32.792 73.165c28.124 41.1328 67.0498 53.9238 101.578 33.3799c31.2998 -18.6436 40.4541 -53.7607 48.5508 -84.7432c2.17969 -8.38574 4.24219 -16.3105 6.67578 -23.7822c16.708 -51.4365 28.1426 -57.9863 32.2852 -58.4111
c3.96289 -0.199219 9.39941 5.12891 14.8994 14.7725c16.3643 28.667 23.6641 61.9023 30.7207 94.0615l2.60547 11.7686c2.91211 13.0176 6.15039 26.46 9.46191 40.2012zM150.753 330.355c0 4.99609 4.05078 9.0459 9.0459 9.0459
c4.99609 0 9.04688 -4.0498 9.04688 -9.0459s-4.05078 -9.0459 -9.04688 -9.0459c-4.99512 0 -9.0459 4.0498 -9.0459 9.0459zM132.661 312.264c0 4.99609 4.0498 9.0459 9.0459 9.0459s9.0459 -4.0498 9.0459 -9.0459s-4.0498 -9.04688 -9.0459 -9.04688
s-9.0459 4.05078 -9.0459 9.04688zM132.661 276.079c0 4.99609 4.0498 9.0459 9.0459 9.0459s9.0459 -4.0498 9.0459 -9.0459s-4.0498 -9.0459 -9.0459 -9.0459s-9.0459 4.0498 -9.0459 9.0459zM60.292 276.079c0 4.99609 4.05078 9.0459 9.0459 9.0459
c4.99609 0 9.04688 -4.0498 9.04688 -9.0459s-4.05078 -9.0459 -9.04688 -9.0459c-4.99512 0 -9.0459 4.0498 -9.0459 9.0459zM168.846 312.264c0 4.99609 4.0498 9.0459 9.0459 9.0459s9.0459 -4.0498 9.0459 -9.0459s-4.0498 -9.04688 -9.0459 -9.04688
s-9.0459 4.05078 -9.0459 9.04688zM186.938 330.355c0 4.99609 4.0498 9.0459 9.0459 9.0459s9.0459 -4.0498 9.0459 -9.0459s-4.0498 -9.0459 -9.0459 -9.0459s-9.0459 4.0498 -9.0459 9.0459zM150.753 366.54c0 4.99609 4.05078 9.0459 9.0459 9.0459
c4.99609 0 9.04688 -4.0498 9.04688 -9.0459s-4.05078 -9.0459 -9.04688 -9.0459c-4.99512 0 -9.0459 4.0498 -9.0459 9.0459zM132.661 348.447c0 4.99609 4.0498 9.04688 9.0459 9.04688s9.0459 -4.05078 9.0459 -9.04688c0 -4.99512 -4.0498 -9.0459 -9.0459 -9.0459
s-9.0459 4.05078 -9.0459 9.0459zM168.846 348.447c0 4.99609 4.0498 9.04688 9.0459 9.04688s9.0459 -4.05078 9.0459 -9.04688c0 -4.99512 -4.0498 -9.0459 -9.0459 -9.0459s-9.0459 4.05078 -9.0459 9.0459zM186.938 366.54c0 4.99609 4.0498 9.0459 9.0459 9.0459
s9.0459 -4.0498 9.0459 -9.0459s-4.0498 -9.0459 -9.0459 -9.0459s-9.0459 4.0498 -9.0459 9.0459zM78.3848 330.355c0 4.99609 4.0498 9.0459 9.0459 9.0459s9.0459 -4.0498 9.0459 -9.0459s-4.0498 -9.0459 -9.0459 -9.0459s-9.0459 4.0498 -9.0459 9.0459z
M60.292 312.264c0 4.99609 4.05078 9.0459 9.0459 9.0459c4.99609 0 9.04688 -4.0498 9.04688 -9.0459s-4.05078 -9.04688 -9.04688 -9.04688c-4.99512 0 -9.0459 4.05078 -9.0459 9.04688zM96.4766 312.264c0 4.99609 4.0498 9.0459 9.0459 9.0459
s9.0459 -4.0498 9.0459 -9.0459s-4.0498 -9.04688 -9.0459 -9.04688s-9.0459 4.05078 -9.0459 9.04688zM114.568 330.355c0 4.99609 4.05078 9.0459 9.04688 9.0459s9.0459 -4.0498 9.0459 -9.0459s-4.0498 -9.0459 -9.0459 -9.0459s-9.04688 4.0498 -9.04688 9.0459z
M78.3848 366.54c0 4.99609 4.0498 9.0459 9.0459 9.0459s9.0459 -4.0498 9.0459 -9.0459s-4.0498 -9.0459 -9.0459 -9.0459s-9.0459 4.0498 -9.0459 9.0459zM60.292 348.447c0 4.99609 4.05078 9.04688 9.0459 9.04688c4.99609 0 9.04688 -4.05078 9.04688 -9.04688
c0 -4.99512 -4.05078 -9.0459 -9.04688 -9.0459c-4.99512 0 -9.0459 4.05078 -9.0459 9.0459zM96.4766 348.447c0 4.99609 4.0498 9.04688 9.0459 9.04688s9.0459 -4.05078 9.0459 -9.04688c0 -4.99512 -4.0498 -9.0459 -9.0459 -9.0459s-9.0459 4.05078 -9.0459 9.0459z
M114.568 366.54c0 4.99609 4.05078 9.0459 9.04688 9.0459s9.0459 -4.0498 9.0459 -9.0459s-4.0498 -9.0459 -9.0459 -9.0459s-9.04688 4.0498 -9.04688 9.0459zM114.568 402.725c0 4.99609 4.05078 9.0459 9.04688 9.0459s9.0459 -4.0498 9.0459 -9.0459
s-4.0498 -9.04688 -9.0459 -9.04688s-9.04688 4.05078 -9.04688 9.04688zM96.4766 384.632c0 4.99609 4.0498 9.0459 9.0459 9.0459s9.0459 -4.0498 9.0459 -9.0459s-4.0498 -9.0459 -9.0459 -9.0459s-9.0459 4.0498 -9.0459 9.0459zM132.661 384.632
c0 4.99609 4.0498 9.0459 9.0459 9.0459s9.0459 -4.0498 9.0459 -9.0459s-4.0498 -9.0459 -9.0459 -9.0459s-9.0459 4.0498 -9.0459 9.0459zM168.846 384.632c0 4.99609 4.0498 9.0459 9.0459 9.0459s9.0459 -4.0498 9.0459 -9.0459s-4.0498 -9.0459 -9.0459 -9.0459
s-9.0459 4.0498 -9.0459 9.0459zM150.753 294.171c0 4.99609 4.05078 9.0459 9.0459 9.0459c4.99609 0 9.04688 -4.0498 9.04688 -9.0459s-4.05078 -9.0459 -9.04688 -9.0459c-4.99512 0 -9.0459 4.0498 -9.0459 9.0459zM114.568 294.171
c0 4.99609 4.05078 9.0459 9.04688 9.0459s9.0459 -4.0498 9.0459 -9.0459s-4.0498 -9.0459 -9.0459 -9.0459s-9.04688 4.0498 -9.04688 9.0459zM96.4766 276.079c0 4.99609 4.0498 9.0459 9.0459 9.0459s9.0459 -4.0498 9.0459 -9.0459s-4.0498 -9.0459 -9.0459 -9.0459
s-9.0459 4.0498 -9.0459 9.0459zM78.3848 294.171c0 4.99609 4.0498 9.0459 9.0459 9.0459s9.0459 -4.0498 9.0459 -9.0459s-4.0498 -9.0459 -9.0459 -9.0459s-9.0459 4.0498 -9.0459 9.0459zM150.753 402.725c0 4.99609 4.05078 9.0459 9.0459 9.0459
c4.99609 0 9.04688 -4.0498 9.04688 -9.0459s-4.05078 -9.04688 -9.04688 -9.04688c-4.99512 0 -9.0459 4.05078 -9.0459 9.04688z" />
    <glyph glyph-name="uniF11C" unicode="&#xf11c;" 
d="M176.398 368.347c0 43.9912 35.6621 79.6533 79.6543 79.6533c43.9912 0 79.6533 -35.6621 79.6533 -79.6533c0 -43.9922 -35.6621 -79.6543 -79.6533 -79.6543c-43.9922 0 -79.6543 35.6621 -79.6543 79.6543zM256.053 251.27
c101.605 0 184.081 -30.8369 183.977 -132.442v-182.723h-56.0293c-0.417969 62.5107 -4.91309 163.698 -30.1055 196.626v-196.73h-195.789v196.626c-25.1924 -32.9277 -29.6875 -133.697 -30.1055 -196.626h-56.0293v182.827c0 101.605 82.4756 132.442 184.082 132.442z
M256.053 37.1875c0 0 56.4473 44.7402 56.6562 68.2598c0 16.7246 -13.4844 30.1055 -30.1055 30.1055c-11.3936 0 -21.5332 -6.89941 -26.4463 -16.2031c-4.91309 9.72168 -15.0527 16.2031 -26.4473 16.2031c-16.7246 0 -30.1055 -13.4854 -30.1055 -30.1055
c0 -22.3701 56.4482 -68.2598 56.4482 -68.2598z" />
    <glyph glyph-name="uniF102" unicode="&#xf102;" 
d="M162.909 226.909c64 0 116.364 -52.3643 116.364 -116.364s-52.3643 -116.364 -116.364 -116.364s-116.364 52.3643 -116.364 116.364s52.3643 116.364 116.364 116.364zM162.909 17.4551c51.2002 0 93.0908 41.8896 93.0908 93.0908
c0 51.2002 -41.8906 93.0908 -93.0908 93.0908s-93.0908 -41.8906 -93.0908 -93.0908s41.8906 -93.0908 93.0908 -93.0908zM162.909 145.455c19.7822 0 34.9092 -15.1279 34.9092 -34.9092c0 -19.7822 -15.127 -34.9092 -34.9092 -34.9092s-34.9092 15.127 -34.9092 34.9092
s15.127 34.9092 34.9092 34.9092zM162.909 98.9092c6.98145 0 11.6357 4.65527 11.6357 11.6357c0 6.98145 -4.6543 11.6357 -11.6357 11.6357s-11.6357 -4.65332 -11.6357 -11.6357c0 -6.98047 4.65332 -11.6357 11.6357 -11.6357zM337.455 331.636
c19.7812 0 34.9092 -15.127 34.9082 -34.9082c0 -19.7812 -15.127 -34.9082 -34.9092 -34.9082h-69.8184c-6.98047 0 -11.6357 4.6543 -11.6357 11.6357c0 6.98047 4.6543 11.6357 11.6357 11.6357h69.8184c6.98047 0 11.6357 4.6543 11.6357 11.6357
s-4.6543 11.6367 -11.6357 11.6367h-162.909v-11.6367c0 -6.98047 -4.6543 -11.6357 -11.6357 -11.6357s-11.6357 4.6543 -11.6357 11.6357v22.1094l-9.30957 83.7822c-1.16309 5.81738 -5.81738 10.4727 -11.6357 10.4727h-48.873
c-6.98145 0 -11.6357 4.65527 -11.6357 11.6357c0 6.98145 4.65332 11.6367 11.6357 11.6367h48.873c17.4541 0 32.582 -12.7998 34.9092 -31.418l8.14453 -73.3096h164.073zM465.455 40.7266c25.5996 0 46.5449 -20.9443 46.5439 -46.5449
c0 -25.5996 -20.9453 -46.5449 -46.5449 -46.5449c-25.6006 0 -46.5449 20.9453 -46.5449 46.5449v104.728h-93.0908c-6.98242 -84.9463 -76.8008 -151.273 -162.909 -151.273c-89.6006 0 -162.909 73.3096 -162.909 162.909s73.3086 162.91 162.909 162.909
c75.6367 0 140.8 -51.2002 158.255 -124.509c2.32715 -5.81934 -2.32812 -12.8008 -8.14648 -13.9639c-5.81836 -2.32812 -12.7998 2.32617 -13.9639 8.14453c-15.127 62.8369 -70.9805 107.055 -136.145 107.055c-76.7998 0 -139.636 -62.8359 -139.636 -139.636
s62.8369 -139.634 139.637 -139.634s139.636 62.8359 139.636 139.636c0 6.98145 4.6543 11.6357 11.6357 11.6357h104.728v34.9092c0 6.98145 -4.6543 11.6357 -11.6357 11.6357h-69.8184c-6.98145 0 -11.6357 4.65527 -11.6357 11.6367
c0 6.98047 4.65332 11.6357 11.6357 11.6357h69.8184c19.7812 0 34.9082 -15.127 34.9082 -34.9092v-162.909c0 -12.7998 10.4736 -23.2725 23.2734 -23.2725s23.2725 10.4727 23.2725 23.2725c0 12.8008 -10.4727 23.2734 -23.2725 23.2734
c-6.98145 0 -11.6357 4.65527 -11.6357 11.6357c0 6.98145 4.65332 11.6357 11.6357 11.6357z" />
    <glyph glyph-name="uniF119" unicode="&#xf119;" 
d="M378.387 118.205c49.499 -11 84.0664 -54.082 84.0654 -104.794v-77.4111h-412.904v77.4111c0 50.7139 34.5693 93.7959 84.0684 104.805l64.5771 14.3438v20.4062c-24.9561 18.0117 -41.291 47.2617 -41.291 80.3262v3.55859
c-20.4385 12.2549 -33.0312 33.998 -33.0312 58.1367v64.083c0 17.25 9.58691 32.7598 25.0137 40.4805c6.30078 3.14648 11.2148 8.47949 13.833 15.0293l1.99023 4.97949c6.9043 17.2666 23.3955 28.4404 42.0176 28.4404h104.159
c42.5957 0 77.2461 -34.6504 77.248 -77.2461v-75.7676c0 -24.1387 -12.5938 -45.874 -33.0322 -58.1367v-3.55859c0 -33.0664 -16.335 -62.3154 -41.291 -80.3271v-20.4053zM156.905 316.325c0 27.0703 22.0234 49.0938 49.0967 49.0938
c23.3369 0 43.5762 -16.5996 48.1523 -39.4658l0.362305 -1.8252h2.98145l0.363281 1.8252c4.5752 22.8662 24.8164 39.4658 48.1445 39.4658c27.0693 0 49.0947 -22.0234 49.0947 -49.1025v-59.1426c10.4121 9.58008 16.5156 23.1396 16.5156 37.8135v75.7676
c0 33.4873 -27.2432 60.7305 -60.7305 60.7305h-104.159c-11.8164 0 -22.2871 -7.08594 -26.6729 -18.0605l-1.99023 -4.98828c-4.1377 -10.3066 -11.875 -18.7051 -21.7852 -23.6602c-9.80273 -4.88867 -15.8887 -14.748 -15.8887 -25.6992v-64.082
c0 -14.6748 6.10156 -28.2354 16.5156 -37.8145v59.1445zM173.422 233.291c0 -45.5361 37.0439 -82.582 82.5801 -82.582c45.5352 0 82.5811 37.0469 82.5811 82.582v83.0342c0 17.9629 -14.6182 32.5791 -32.5791 32.5791c-15.4824 0 -28.9189 -11.0166 -31.9492 -26.1943
l-3.02246 -15.0967h-30.0518l-3.03027 15.0967c-3.0293 15.1777 -16.4658 26.1943 -31.9502 26.1943c-17.9619 0 -32.5781 -14.6182 -32.5781 -32.5791v-83.0342zM214.711 128.223l41.291 -68.8232l41.29 68.8232v15.0957c-12.5859 -5.79688 -26.542 -9.125 -41.29 -9.125
c-14.749 0 -28.7051 3.32812 -41.291 9.125v-15.0957zM247.099 42.1406l-42.4287 70.7129l-5.79688 -40.5801zM307.335 112.854l-42.4297 -70.7041l48.2266 30.1328zM363.356 -47.4854v29.3662c-4.87988 -2.84082 -10.4707 -4.5918 -16.5166 -4.5918
c-18.2158 0 -33.0312 14.8145 -33.0312 33.0322c0 15.3506 10.5625 28.168 24.7744 31.8594v67.9561l-14.6416 3.25391l7.06055 -49.416l-75 -46.8809l-75.001 46.8809l7.06055 49.416l-14.6416 -3.25391v-66.7832h24.7744c18.2168 0 33.0322 -14.8145 33.0322 -33.0322
v-41.291h-24.7744v16.5166h8.25879v24.7744c0 9.10938 -7.40723 16.5156 -16.5166 16.5156h-66.0635c-9.10938 0 -16.5156 -7.40625 -16.5156 -16.5156v-24.7744h8.25879v-16.5166h-24.7754v41.291c0 18.2168 14.8145 33.0322 33.0322 33.0322h24.7734v63.1084
l-19.7119 -4.38477c-41.877 -9.2998 -71.127 -45.7666 -71.127 -88.667v-60.8955h66.0654v33.0322h16.5156v-33.0322h214.71zM346.84 26.8369c-9.1084 0 -16.5156 -7.40625 -16.5156 -16.5156s7.40723 -16.5156 16.5156 -16.5156c9.10938 0 16.5166 7.4082 16.5166 16.5156
c0 9.10938 -7.40723 16.5156 -16.5166 16.5156zM445.938 -47.4844v60.8945c0 42.9004 -29.25 79.3672 -71.127 88.667l-19.7119 4.38477v-64.2803c14.2119 -3.69043 24.7754 -16.5068 24.7754 -31.8594c0 -9.91895 -4.47656 -18.7129 -11.4131 -24.7744h11.4131v-33.0322
h66.0635z" />
    <glyph glyph-name="uniF11A" unicode="&#xf11a;" 
d="M481.933 332.577c25.6309 -92.9297 4.17969 -237.35 -61.8887 -284.275c-49.1719 -34.915 -98.5146 -28.5811 -148.943 -18.2979c-17.6982 3.60449 -35.0713 13.0879 -51.875 22.2666c-33.3496 18.2012 -55.0215 28.1816 -74.8496 13.8701
c-5.01953 -3.63672 -7.63281 -8.18262 -8.22461 -14.3008c-2.4209 -24.9639 28.9375 -64.5918 41.2246 -77.7588l10.8604 -11.6211l-15.1807 -4.76074c-55.8906 -17.5049 -79.1309 -21.6992 -89.6445 -21.6992c-5.99707 0 -7.85547 1.36035 -9.27246 2.39551
c-2.89844 2.13086 -4.56055 5.39551 -4.56055 8.95312c-0.0146484 1.00586 -0.235352 3.64648 -0.542969 7.53613c-7.68652 98.0723 -0.782227 151.401 21.7393 167.843c4.6543 3.39453 8.40723 6.57031 11.8184 9.44434c23.9336 20.1748 37.2666 26.3711 136.867 10.791
c25.7646 -4.0459 42.6172 -1.37793 47.4561 7.47852c10.4688 19.167 -20.498 72.5391 -56.4834 113.056l-1.20605 1.67188c-20.8145 36.3818 -147.262 51.8652 -194.229 54.7588l-15.4434 0.948242l45.4561 86.4492l130.443 -30.0996l0.515625 2.23926l10.3799 -2.39551
c10.1621 14.9062 35.4375 44.54 83.9414 60.6348c31.6846 10.4893 78.3203 18.2998 120.566 -4.28027c33.6738 -17.9854 57.5869 -51.9248 71.0762 -100.847zM408.453 64.6299c42.1514 29.9307 85.2598 149.947 54.1865 262.631
c-11.9805 43.4268 -32.5742 73.2021 -61.2148 88.5098c-37.8828 20.2441 -81.9424 10.5283 -104.83 2.93262c-36.7588 -12.1904 -58.2217 -33.0371 -68.9785 -46.5391l117.978 -27.2207l-4.50195 -19.5107l-124.721 28.7783l-1.04004 -2.11328l-139.783 32.2578
l-23.9824 -45.6104c45.3896 -3.92871 167.598 -18.4932 194.479 -62.6836c10.9746 -12.4629 80.7607 -94.3457 58.4453 -135.215c-9.45898 -17.3115 -32.3818 -23.2637 -68.1172 -17.6631c-38.21 5.9707 -62.3389 8.57129 -78.6719 8.57129
c-24.5449 0 -31.4863 -5.85352 -42.209 -14.8857c-3.72559 -3.13867 -7.83008 -6.59961 -12.9092 -10.3027c-8.95801 -6.54102 -22.6328 -34.7402 -13.5879 -150.113c0.00488281 -0.0800781 0.00976562 -0.15625 0.0195312 -0.235352
c12.1562 1.79102 38.2061 8.60352 63.4346 16.1191c-14.7178 18.1514 -38.9883 52.8438 -36.2305 81.415c1.13965 11.7598 6.8125 21.6514 16.417 28.6104c31.4844 22.7939 65.8623 4.0459 96.1797 -12.5225c15.5078 -8.46484 31.543 -17.2148 46.2832 -20.2246
c47.7109 -9.7168 90.6729 -15.3076 133.354 15.0146zM415.803 150.551l3.04492 9.53027l19.0703 -6.08887l-3.04395 -9.54102c-19.9727 -62.5 -94.666 -73.752 -97.832 -74.2002l-9.89746 -1.39746l-2.81348 19.7842l9.8916 1.43652
c0.651367 0.0869141 65.4658 10.0381 81.5801 60.4766z" />
    <glyph glyph-name="uniF114" unicode="&#xf114;" 
d="M341.333 440.679c94.2588 0 170.667 -76.4072 170.667 -170.666c0 -47.1279 -19.1025 -89.7949 -49.9873 -120.68l-206.013 -206.012l-206.013 206.012c-30.8838 30.8857 -49.9873 73.5527 -49.9873 120.68c0 94.2588 76.4082 170.666 170.667 170.666
c31.0957 0 60.2217 -8.35742 85.333 -22.8867c25.1113 14.5303 54.2373 22.8867 85.333 22.8867zM431.844 179.501c24.1777 24.1777 37.4893 56.3203 37.4893 90.5117c0 70.582 -57.417 128 -128 128c-22.4531 0 -44.5723 -5.92871 -63.96 -17.1523l-21.373 -12.3682
l-21.373 12.3672c-19.3877 11.2236 -41.5059 17.1514 -63.96 17.1514c-70.583 0 -128 -57.417 -128 -128c0 -34.1895 13.3115 -66.332 37.4893 -90.5098l175.844 -175.843zM270.223 227.346h71.1104v-28.4443h-71.1104v-71.1113h-28.4453v71.1113h-71.1104v28.4443h71.1104
v71.1113h28.4453v-71.1113z" />
    <glyph glyph-name="uniF112" unicode="&#xf112;" 
d="M396.802 211.413c7.07422 0 12.7998 -5.72461 12.7988 -12.8018c0 -7.07422 -5.72559 -12.8008 -12.7998 -12.8008h-102.4c-5.50391 0 -10.4023 3.52539 -12.1514 8.74707l-12.501 37.5479l-39.8516 -139.427c-1.57031 -5.50391 -6.59668 -9.27637 -12.2969 -9.27637
h-0.375c-5.85352 0.180664 -10.8545 4.30078 -12.126 10.0273l-42.1973 189.953l-35.8232 -89.5234c-1.92773 -4.87305 -6.65527 -8.05566 -11.8779 -8.04785h-102.4c-7.07422 0 -12.7998 5.72656 -12.7998 12.8008s5.72559 12.7998 12.7998 12.7998h93.7246l48 119.953
c2.07324 5.22363 7.33008 8.37109 12.9023 7.99609c5.60547 -0.452148 10.248 -4.49707 11.4766 -9.97461l40.2529 -181.146l37.3496 130.697c1.52734 5.40234 6.40039 9.14746 12.0234 9.27539c5.49512 0.776367 10.6484 -3.42188 12.4238 -8.74609l22.6729 -68.0537
h93.1758zM467.014 383.626c59.9814 -59.9902 59.9814 -157.237 0 -217.227l-211.013 -211.013l-204.801 204.801h36.207l168.594 -168.594l192.914 192.913c49.9033 49.9033 49.9111 131.115 0 181.019c-24.1836 24.1758 -56.3203 37.4873 -90.5137 37.4873
c-31.1973 0 -60.3906 -11.5713 -83.6865 -31.8887l-18.7139 -17.4932l-18.7051 17.4844c-23.2959 20.3262 -52.4893 31.8896 -83.6953 31.8896c-34.1934 0 -66.3379 -13.3125 -90.5137 -37.4873c-34.7559 -34.7559 -44.7305 -84.5576 -31.0781 -128.529h-26.624
c-12.9795 50.8242 -0.170898 106.854 39.6035 146.637c29.9941 29.9951 69.2988 44.9883 108.612 44.9883c36.7793 0 73.25 -13.6621 102.4 -39.9199c29.1416 26.2578 65.6211 39.9199 102.4 39.9199c39.3057 0 78.6182 -14.9932 108.612 -44.9873z" />
    <glyph glyph-name="uniF10E" unicode="&#xf10e;" 
d="M472.829 390.705c25.2598 -28.2764 39.1709 -65.5 39.1709 -104.81c0 -54.5244 -20.2686 -133.783 -54.2178 -212.022c-15.1309 -34.8662 -31.1602 -65.001 -46.3555 -87.1475c-18.1719 -26.4854 -33.7178 -39.3613 -47.5283 -39.3623
c-6.10254 0.00390625 -17.2529 2.60449 -23.4521 19.9961c-5.95117 16.7012 -11.249 36.1025 -16.8564 56.6455c-8.48535 31.0762 -17.2461 63.1689 -28.7695 87.3037c-11.6338 24.3643 -24.0107 36.208 -37.8379 36.208h-1.96387
c-31.0986 0 -50.415 -68.1895 -65.9375 -122.978c-5.86523 -20.7031 -11.3955 -40.2217 -17.5449 -57.2266c-6.32715 -17.499 -17.6045 -20.1113 -23.7637 -20.1113c-13.8799 0 -29.4404 12.6807 -47.5732 38.7725c-15.2344 21.9209 -31.2305 51.7598 -46.2568 86.291
c-33.7764 77.6152 -53.9424 157.474 -53.9424 213.63c0 39.3096 13.9102 76.5322 39.168 104.811c26.5508 29.7246 63.0918 46.0938 102.894 46.0938c31.3369 0 64.835 -18.5332 89.2939 -32.0664c8.90527 -4.92676 21.0498 -11.6455 24.6416 -12.082
c3.6084 0.443359 15.8164 7.18066 24.7432 12.1084c24.5215 13.5264 58.082 32.04 89.1992 32.04c39.8008 0 76.3408 -16.3691 102.89 -46.0938zM360.34 350.395c0 0 3.05371 -0.0214844 3.1543 -0.84668c0.100586 -0.826172 -3.0752 -1.66504 -3.0752 -1.66504
c-0.138672 -0.0439453 -14.3301 -3.79688 -35.4297 -3.79688c-20.707 0 -40.8301 4.08398 -59.8086 12.1406c-4.96289 2.10547 -9.63574 4.86523 -13.3906 7.08105c-8.80762 5.18555 -16.3086 10.6221 -21.8594 14.7793c-1.73145 1.30371 -3.59082 2.73145 -5.47852 4.18262
c-4.72949 3.63672 -9.61914 7.39453 -13.0918 9.60156c-23.6787 15.0459 -49.585 24.0283 -69.2988 24.0283c-75.8398 0 -121.161 -66.0996 -121.161 -130.004c0 -52.6318 20.0039 -131.293 52.2061 -205.289c14.2832 -32.8203 30 -62.1924 44.2549 -82.7031
c20.4766 -29.4619 28.5264 -30.0869 30.4111 -29.8008c2.4043 0.365234 2.80664 2.7168 4.10938 6.31934c5.90137 16.3184 11.3359 35.5049 17.0898 55.8154c9.0293 31.877 18.3672 64.8379 30.6621 90.4658c15.4043 32.1074 33.5215 47.7158 55.3848 47.7158h1.96387
c22.6963 0 41.2422 -15.7334 56.6973 -48.1016c12.3369 -25.8359 21.3477 -58.8516 30.0645 -90.7773c5.50195 -20.1543 10.6992 -39.1904 16.3926 -55.1621c1.53809 -4.32031 1.78418 -5.72168 3.76172 -6.11328c3.22168 -0.633789 13.8574 6.33008 30.2939 30.2871
c14.2451 20.7617 30.0195 50.4678 44.415 83.6426c32.3789 74.6094 52.4922 152.664 52.4922 203.7c0 63.9043 -45.3213 130.004 -121.16 130.004c-25.7393 0 -56.5781 -17.0146 -79.0986 -29.4385c-4.08887 -2.25684 -21.043 -12.1279 -21.043 -14.1562
c0 -2.08301 15.6055 -9.10352 28.8027 -12.5977c29.2686 -7.75098 61.4209 -9.29004 61.7393 -9.31152z" />
    <glyph glyph-name="uniF100" unicode="&#xf100;" 
d="M499.369 207.972l12.6299 -15.9717l-12.6289 -15.9717c-1.02148 -1.29199 -25.4951 -31.9795 -67.0996 -62.5459c-55.8896 -41.0605 -116.843 -62.7637 -176.271 -62.7637c-59.4307 0 -120.383 21.7031 -176.271 62.7637
c-41.7305 30.6562 -66.0898 61.2656 -67.1045 62.5527l-12.625 15.9648l12.6299 15.9707c1.00977 1.28223 25.3691 31.8896 67.0996 62.5469c55.8877 41.0605 116.84 62.7637 176.271 62.7637c59.4277 0 120.381 -21.7031 176.271 -62.7637
c41.6025 -30.5654 66.0781 -61.2539 67.0986 -62.5459zM485.906 186.679l4.20801 5.32129l-4.21094 5.32227c-0.959961 1.21582 -24.0371 30.1484 -63.7979 59.3594c-52.9219 38.8809 -110.361 59.4326 -166.106 59.4326c-55.748 0 -113.188 -20.5518 -166.105 -59.4326
c-39.8799 -29.2959 -62.8369 -58.1396 -63.7939 -59.3535l-4.21484 -5.32812l4.21094 -5.32227c0.960938 -1.2207 23.9189 -30.0645 63.7988 -59.3613c52.9189 -38.8799 110.358 -59.4307 166.105 -59.4307c55.7461 0 113.185 20.5518 166.106 59.4307
c39.7588 29.2129 62.835 58.1455 63.7998 59.3623zM256 287.317c52.5586 0 95.3184 -42.7598 95.3184 -95.3174s-42.7598 -95.3174 -95.3184 -95.3174s-95.3203 42.7588 -95.3203 95.3174s42.7617 95.3174 95.3203 95.3174zM256 113.85
c43.0918 0 78.1523 35.0586 78.1523 78.1514c0 43.0938 -35.0605 78.1514 -78.1523 78.1514s-78.1523 -35.0576 -78.1523 -78.1514c0 -43.0928 35.0605 -78.1514 78.1523 -78.1514zM256 251.208c32.6484 0 59.208 -26.5605 59.2061 -59.207h-17.166
c0 23.1807 -18.8584 42.04 -42.04 42.04v17.167z" />
    <glyph glyph-name="uniF104" unicode="&#xf104;" 
d="M447.041 346.463c63.7266 -61.0986 82.1816 -149.431 48.1533 -230.527c-33.3428 -79.4736 -107.897 -128.989 -189.653 -127.149c-2.04785 -0.251953 -7.60938 -0.81543 -15.9639 -0.81543c-24.25 0 -72.0732 4.72852 -126.334 35.5898
c-4.81543 -3.9043 -12.6592 -8.53809 -23.2617 -9.25781c-16.2158 -1.04102 -32.9258 7.00195 -49.957 24.042c-3.70508 3.69629 -8.32031 4.81543 -12.6592 2.99316c-8.04199 -3.33203 -16.6318 -16.8057 -16.6318 -44.6396
c0 -4.79785 -3.88672 -8.67578 -8.67578 -8.67578c-4.79004 0 -8.67676 3.87793 -8.67676 8.67578c0 44.5352 19.1221 57.2637 27.3477 60.6562c10.8369 4.45898 22.9229 1.89062 31.5723 -6.75879c13.041 -13.0322 25.6562 -19.7305 36.2412 -19.001
c10.4805 0.589844 16.3281 7.78223 16.5713 8.08594l4.72852 5.93457l6.56738 -3.80859c73.5312 -43.9883 136.867 -35.833 137.492 -35.7285l0.719727 0.103516l0.746094 -0.0175781c75.1016 -2.52441 143.192 43.4678 173.828 116.496
c24.4326 58.2432 25.6641 144.328 -44.1621 211.282c-34.8086 33.3691 -68.7588 48.2051 -100.904 44.0322c-47.3457 -6.11719 -75.9336 -51.9531 -76.2197 -52.4219l-3.07227 -5.00586l-5.80371 0.980469c-59.71 10.2637 -71.249 60.9678 -71.709 63.1191
c-1.00684 4.69336 1.97852 9.30957 6.66309 10.3076c4.66797 1.05762 9.27539 -1.96094 10.2988 -6.62891c0.381836 -1.70898 9.14453 -38.4355 52.2568 -48.5957c9.7002 13.5869 39.3027 49.4287 85.209 55.4326c37.6543 4.92773 76.4463 -11.4619 115.289 -48.6992z
M55.5713 100.206c-25.3604 -15.0967 -38.2188 -49.9229 -38.2188 -103.508c0 -4.79785 -3.88672 -8.67578 -8.67676 -8.67578c-4.78906 0 -8.67578 3.87793 -8.67578 8.67578c0 60.1699 15.7295 100.028 46.7471 118.465c40.4746 24.042 93.2871 3.25391 111.107 -5.0752
c24.3809 23.9551 55.4756 22.1328 70.7031 19.3389c7.50488 21.5605 29.8027 34.332 40.4043 39.3379v36.9268c-21.6035 13.3955 -27.8506 37.3164 -29.6465 49.168c-107.992 22.9053 -123.592 102.058 -124.217 105.485c-0.859375 4.71094 2.27344 9.22266 6.98438 10.0811
c4.7373 0.911133 9.20508 -2.26465 10.082 -6.94922c0.572266 -3.01953 15.166 -74.0078 116.686 -92.8359l6.87207 -1.27539l0.216797 -6.99219c0.0175781 -0.287109 1.45703 -31.9111 25.543 -43.8242l4.83203 -2.38574v-59.1191l-5.65625 -2.12598
c-0.347656 -0.129883 -34.1504 -13.0576 -37.0742 -37.0215l-1.28418 -10.542l-10.0723 3.36719c-1.60547 0.511719 -40.4746 12.7627 -65.8525 -16.9277l-4.55469 -5.33594l-6.17773 3.34961c-0.589844 0.329102 -60.2217 32.1191 -100.071 8.39844z" />
    <glyph glyph-name="uniF10F" unicode="&#xf10f;" 
d="M480.031 351.596c20.0098 -75.6348 -0.941406 -162.676 -19.4219 -239.468c-3.28418 -13.6416 -6.50391 -26.9854 -9.39941 -39.9209l-2.57812 -11.6963c-7.34473 -33.4707 -14.9531 -68.0811 -32.6836 -99.1543c-9.70605 -16.998 -20.7334 -24.9492 -32.457 -23.791
c-22.4707 2.30664 -36.7002 37.0889 -47.6553 70.8213c-2.58691 7.97852 -4.82129 16.5273 -6.97461 24.7959c-7.5625 28.9648 -15.3779 58.917 -40.2998 73.7617c-37.3691 22.2715 -66.5703 -12.2129 -77.3984 -28.0518
c-14.2842 -20.8877 -22.208 -44.1543 -30.6025 -68.7871c-3.32031 -9.75195 -6.75781 -19.8379 -10.6201 -29.7432c-5.70898 -14.6729 -13.542 -34.7734 -34.4844 -43.6387l-1.69141 -0.714844h-1.83594c-22.8145 0 -35.9229 31.915 -43.7471 50.9746l-1.08594 2.63281
c-31.5439 76.1592 -43.8008 160.496 -55.6787 242.056c-1.64648 11.3164 -3.27441 22.5791 -4.96582 33.751c-14.2119 94.4141 31.7334 155.222 83.5674 173.595c38.3105 13.5684 88.2178 2.02637 127.433 -9.52637c13.7227 -4.04297 13.7227 -4.03418 22.0723 -0.813477
c2.63281 1.02246 5.8623 2.2793 10.0684 3.73633c0.914062 0.316406 1.76367 0.696289 2.6416 1.07617l1.64648 0.696289c50.1963 20.7793 105.812 17.9385 145.162 -7.35449c31.9238 -20.5078 53.5898 -47.2295 60.9893 -75.2363zM443.015 116.361
c17.9834 74.7119 38.373 159.392 19.5303 230.612c-6.25098 23.6191 -25.1748 46.5781 -53.29 64.6523c-34.4297 22.1445 -83.6592 24.3789 -128.446 5.86133l-1.34766 -0.579102c-1.33008 -0.578125 -2.6416 -1.13086 -3.96191 -1.5918
c-3.92578 -1.36621 -6.94727 -2.54199 -9.41699 -3.50098h-0.00878906c41.3398 -29.6533 41.4131 -54.0234 41.2139 -105.758l-0.0273438 -11.877c0 -5.00293 -4.04395 -9.04688 -9.0459 -9.04688c-5.00293 0 -9.0459 4.04395 -9.0459 9.04688l0.0263672 11.9404
c0.235352 59.0254 0.235352 73.3096 -57.8672 106.318c-23.4844 6.89355 -53.9697 14.5732 -81.6328 14.5732c-12.0127 0 -23.4922 -1.45605 -33.624 -5.03809c-62.2188 -22.0635 -80.8535 -93.166 -71.7178 -153.865c1.68262 -11.1904 3.32031 -22.4795 4.97559 -33.832
c11.7061 -80.4561 23.8008 -163.662 54.4854 -237.731l1.10352 -2.6875c4.24219 -10.3486 15.1973 -36.998 25.4463 -39.5586c11.5244 5.85352 16.9346 17.7852 22.7236 32.6387c3.72754 9.53516 7.09277 19.4307 10.3584 29.0107
c8.41211 24.6963 17.1152 50.2334 32.792 73.165c28.124 41.1328 67.0498 53.9238 101.578 33.3799c31.2998 -18.6436 40.4541 -53.7607 48.5508 -84.7432c2.17969 -8.38574 4.24219 -16.3105 6.67578 -23.7822c16.708 -51.4365 28.1426 -57.9863 32.2852 -58.4111
c3.91699 -0.199219 9.39941 5.12891 14.8994 14.7725c16.3643 28.667 23.6641 61.9023 30.7207 94.0615l2.60547 11.7686c2.91211 13.0176 6.15039 26.46 9.46191 40.2012zM397.721 366.54c24.9307 0 45.2305 -20.291 45.2305 -45.2305
c0 -24.9404 -20.29 -45.2305 -45.2305 -45.2305s-45.2305 20.29 -45.2305 45.2305c0 24.9395 20.29 45.2305 45.2305 45.2305zM397.721 294.171c14.9619 0 27.1387 12.1768 27.1387 27.1387s-12.1768 27.1377 -27.1387 27.1377s-27.1387 -12.1758 -27.1387 -27.1377
s12.1768 -27.1387 27.1387 -27.1387zM126.338 203.71c19.9561 0 36.1846 -16.2285 36.1846 -36.1846c0 -19.9551 -16.2285 -36.1836 -36.1846 -36.1836s-36.1846 16.2285 -36.1846 36.1836c0 19.9561 16.2285 36.1846 36.1846 36.1846zM126.338 149.434
c9.96875 0 18.0918 8.11426 18.0918 18.0918c0 9.97852 -8.11426 18.0928 -18.0918 18.0928s-18.0928 -8.11426 -18.0928 -18.0928c0 -9.97754 8.11523 -18.0918 18.0928 -18.0918z" />
    <glyph glyph-name="uniF11D" unicode="&#xf11d;" 
d="M353.243 182.409c0 14.0049 11.3525 25.3574 25.3574 25.3574s25.3574 -11.3525 25.3574 -25.3574s-11.3525 -25.3574 -25.3574 -25.3574s-25.3574 11.3525 -25.3574 25.3574zM335.124 190.547c4.51367 0 8.15625 -3.6416 8.14648 -8.1377v-38.0361
c0 -1.49902 1.23535 -2.7334 2.71582 -2.7334h48.8984c4.50488 0 8.15625 -3.64258 8.14746 -8.1377c0 -4.49609 -3.66016 -8.1377 -8.14746 -8.1377h-59.7607c-4.50488 0 -8.14648 3.6416 -8.14648 8.1377v48.9072c0 4.49609 3.6416 8.1377 8.14648 8.1377zM110.612 128.07
c-3.00684 0 -5.44043 2.43457 -5.44043 5.43164v19.4805c0 13.751 12.1611 24.9043 27.165 24.9043h181.971c3.01562 0 5.43164 -2.44336 5.44043 -5.44043v-38.9443c0 -2.99707 -2.4248 -5.43164 -5.44043 -5.43164h-203.695zM293.954 292.35
c-32.042 21.7148 -51.5049 48.9531 -43.4492 60.832c8.04688 11.8613 40.5527 3.89648 72.5947 -17.8281c32.0508 -21.7334 51.5049 -48.9619 43.458 -60.8418c-8.05566 -11.8613 -40.5518 -3.88672 -72.6035 17.8379zM313.236 295.482
c1.78027 2.5791 -2.47949 8.52832 -9.49121 13.2695c-6.97559 4.74023 -14.0684 6.48438 -15.8213 3.89648c-1.76172 -2.58887 2.47949 -8.54688 9.48145 -13.2783c6.97559 -4.75 14.0869 -6.48535 15.8311 -3.8877zM350.519 284.084
c1.76172 2.58887 -2.49805 8.52832 -9.47266 13.2695c-6.99316 4.75 -14.0957 6.49414 -15.8301 3.89648c-1.77148 -2.58887 2.46973 -8.52832 9.47266 -13.2783c6.98438 -4.74121 14.0859 -6.48438 15.8301 -3.8877zM302.937 332.22
c-1.78027 -2.59668 2.4707 -8.5459 9.47266 -13.2871c6.98438 -4.74023 14.0869 -6.47559 15.8574 -3.89648c1.73535 2.59766 -2.48828 8.54688 -9.49023 13.2783c-6.99316 4.75 -14.0957 6.48535 -15.8398 3.90527zM265.409 344.245
c-1.76172 -2.58887 2.48828 -8.53711 9.49121 -13.2695c6.9834 -4.75 14.0859 -6.48438 15.8389 -3.90527c1.75293 2.59766 -2.48828 8.53711 -9.48145 13.2871c-6.99316 4.74121 -14.0869 6.47559 -15.8486 3.8877zM325.979 337.161
c-27.2744 19.3262 -55.8379 30.7158 -65.292 25.9199c-1.46191 -0.753906 -1.44434 -0.807617 -0.553711 0.454102l6.04785 8.52832c5.65918 7.9834 32.5508 -1.1709 59.9883 -19.0635c0.109375 0.181641 0.136719 0.390625 0.28125 0.572266l24.9043 31.7246v53.6211
c0 5.02246 4.0498 9.08203 9.08203 9.08203c5.02246 0 9.08203 -4.05957 9.08203 -9.08203v-56.7637c0 -2.02539 -0.69043 -4.00586 -1.93457 -5.60352l-26.6836 -34.0039c25.9385 -19.9629 43.4492 -42.251 37.8096 -50.2246l-6.04883 -8.52832
c-0.880859 -1.2627 -0.827148 -1.2627 -0.608398 0.363281c1.41602 10.5078 -18.791 33.6768 -46.0742 53.0039zM413.194 116.6c4.4873 0 8.14746 -3.65137 8.14746 -8.12891v-8.97266c0 -9.46387 -18.2012 -17.1289 -40.6611 -17.1289h-97.5791
c-4.50488 0 -8.1377 -3.64258 -8.1377 -8.12891v-130.103c0 -4.50488 -3.63281 -8.1377 -8.12891 -8.1377h-29.8076c-4.50488 0 -8.1377 3.6416 -8.1377 8.1377v32.8682c-4.12305 0.318359 -7.41113 4.15039 -7.41113 8.94629v31.252
c0 4.79492 3.28809 8.62793 7.41113 8.94629v48.0713c0 4.51465 -3.6416 8.1377 -8.1377 8.1377h-89.4502c-22.4512 0 -40.6523 7.66602 -40.6523 17.1289v8.97363c0 4.50488 3.63281 8.1377 8.12891 8.1377h314.416z" />
    <glyph glyph-name="uniF10B" unicode="&#xf10b;" 
d="M462.546 261.754c0.333008 -3.86035 3.50195 -47.7051 -18.8906 -96.4863c-13.4971 -29.4023 -33.5264 -54.3936 -59.5332 -74.2803c-32.3594 -24.7451 -74.0732 -41.5674 -123.979 -49.998c-9.84375 -1.66309 -19.0781 -2.47168 -28.2295 -2.47168
c-27.1992 -0.000976562 -53.2207 7.44531 -77.3428 22.1309c-5.5293 3.36621 -10.6455 5.07324 -15.208 5.07324c-15.6602 0 -35.5605 -21.0518 -41.4326 -121.343c-0.0957031 -1.64648 -0.180664 -3.07422 -0.255859 -4.25195
c-0.149414 -2.32129 -2.07617 -4.12695 -4.40234 -4.12695h-39.7441c-1.30176 0 -2.53711 0.575195 -3.37598 1.57129c-0.838867 0.99707 -1.19336 2.3125 -0.970703 3.5957c0.0634766 0.364258 6.43066 37.3242 14.2686 110.998
c8.26367 77.6895 42.6787 98.0332 121.813 116.704c40.4346 9.54004 52.5498 45.8477 56.0898 69.7803c-10.877 0.228516 -34.2764 2.84277 -51.1465 19.7471c-12.4375 12.4619 -18.7217 30.0898 -18.6768 52.3916v132.801c0 2.43555 1.97559 4.41113 4.41113 4.41113
h43.7207c2.43555 0 4.41113 -1.97559 4.41113 -4.41113v-109.696c0 -0.0732422 -0.00195312 -0.146484 -0.00488281 -0.220703c-0.00878906 -0.169922 -0.723633 -17.8555 8.54688 -27.5713c4.02441 -4.2168 9.28125 -6.29883 16.0596 -6.3584
c7.60938 19.9707 21.335 37.873 38.9033 50.6641c19.123 13.9229 41.5439 21.2812 64.835 21.2822c60.6611 0 110.026 -49.2979 110.134 -109.935zM426.041 150.674c3.41992 5.74805 6.56836 11.7158 9.42969 17.915c3.14941 6.82227 5.77148 13.5703 7.95508 20.127
c-15.7139 0.369141 -24.1875 3.33887 -32.3984 6.21875c-8.44727 2.96094 -16.4268 5.75977 -32.8115 5.75977c-16.3857 0 -24.3643 -2.79785 -32.8125 -5.75977c-8.77344 -3.07715 -17.8447 -6.25684 -35.7314 -6.25684c-17.8008 0 -27.7002 3.05957 -37.2744 6.01855
c-9.22656 2.85254 -17.9629 5.54297 -33.9834 5.62012c-0.720703 -1.36914 -1.46484 -2.73438 -2.2666 -4.08496c-11.1758 -18.8408 -27.6133 -30.9355 -48.8574 -35.9482c-29.9834 -7.07422 -52.7529 -14.2646 -69.874 -24.4434h112.396
c2.43555 0 4.41113 -1.97559 4.41113 -4.41113c0 -2.43652 -1.97559 -4.41211 -4.41113 -4.41211h-124.91c-4.56738 -3.84766 -8.5918 -8.08301 -12.1279 -12.8008h39.2979c2.43555 0 4.41113 -1.97559 4.41113 -4.41113c0 -2.43652 -1.97559 -4.41113 -4.41113 -4.41113
h-45.0205c-7.75488 -13.8428 -12.4004 -31.3301 -14.8291 -54.1602c-6.20996 -58.3721 -11.5098 -93.8447 -13.5039 -106.409h30.4014c0.000976562 0.0234375 0.00292969 0.046875 0.00390625 0.0712891c0.242188 4.13086 0.547852 9.35547 0.988281 15.3115h-21.7461
c-2.43555 0 -4.41113 1.97559 -4.41113 4.41211c0 2.43555 1.97559 4.41113 4.41113 4.41113h22.459c3.66016 41.3662 13.9561 105.516 48.5371 105.516c6.20312 0 12.8643 -2.14062 19.7949 -6.35938c22.7207 -13.832 47.1992 -20.8447 72.7559 -20.8447
c8.6543 0 17.4072 0.767578 26.7598 2.34766c74.8125 12.6377 129.062 43.5967 161.765 92.1611h-65.5918c-2.43652 0 -4.41113 1.97559 -4.41113 4.41113c0 2.43652 1.97461 4.41211 4.41113 4.41211h71.1963zM446.131 197.507
c10.0332 35.4082 7.64453 63.2871 7.61133 63.6377c-0.0126953 0.134766 -0.0185547 0.273438 -0.0185547 0.40918c0 13.0625 -2.48633 25.5537 -7.00781 37.0303h-29.9717c-2.43652 0 -4.41211 1.97461 -4.41211 4.41113c0 2.43555 1.97559 4.41113 4.41211 4.41113
h25.9961c-16.7598 32.8838 -50.9551 55.46 -90.3252 55.46c-42.6611 0 -82.3223 -28.3271 -96.4492 -68.8867c-0.581055 -1.66699 -2.09863 -2.82812 -3.85938 -2.9502c-10.7725 -0.751953 -19.5176 2.30078 -25.9053 9.01562
c-11.54 12.1318 -11.0283 32.0195 -10.9492 33.9463v105.187h-34.8975v-128.398c-0.00585938 -2.58301 0.0859375 -5.08984 0.264648 -7.52441h15.9365c2.43652 0 4.41113 -1.97559 4.41113 -4.41211c0 -2.43555 -1.97461 -4.41113 -4.41113 -4.41113h-14.8193
c0.822266 -4.51758 2.00781 -8.73242 3.56543 -12.6289h42.3926c2.43652 0 4.41211 -1.97559 4.41211 -4.41113c0 -2.43652 -1.97559 -4.41113 -4.41211 -4.41113h-37.8955c1.92969 -3.03906 4.13965 -5.83301 6.6543 -8.35156
c15.4707 -15.501 37.7354 -17.1748 46.5889 -17.1748c1.88281 0.000976562 2.98633 0.0820312 2.99805 0.0830078c1.30859 0.0996094 2.59473 -0.388672 3.50684 -1.33203c0.912109 -0.942383 1.35938 -2.24316 1.2168 -3.54688
c-0.991211 -9.04199 -3.24512 -21.2529 -8.2793 -33.5986c14.8672 -0.491211 23.8379 -3.24902 32.5195 -5.93359c9.35938 -2.89258 18.2012 -5.62598 34.6689 -5.62598c16.3848 0 24.3633 2.79785 32.8115 5.75977c8.77344 3.07617 17.8447 6.25684 35.7314 6.25684
c17.8857 0 26.958 -3.18066 35.7305 -6.25684c8.33594 -2.92285 16.2324 -5.68066 32.1846 -5.75293zM352.412 348.274c2.43652 0 4.41211 -1.97559 4.41211 -4.41113c0 -2.43652 -1.97559 -4.41211 -4.41211 -4.41211
c-28.1553 -0.000976562 -54.333 -18.6992 -63.6582 -45.4717c-0.634766 -1.82129 -2.3418 -2.96289 -4.16602 -2.96289c-0.481445 0 -0.970703 0.0800781 -1.45117 0.24707c-2.30176 0.801758 -3.5166 3.31641 -2.71582 5.61816
c5.05566 14.5078 14.7998 27.5664 27.4404 36.7705c13.1387 9.56445 28.5439 14.6221 44.5508 14.6221z" />
    <glyph glyph-name="uniF115" unicode="&#xf115;" 
d="M453.915 68.9463c17.334 0 31.4346 -14.1025 31.4355 -31.4346c0 -17.333 -14.1006 -31.4346 -31.4346 -31.4346h-55.2119c-17.332 0 -31.4346 14.1006 -31.4346 31.4346v88.5459h-9.76562c1.11719 -7.76953 1.70703 -15.7051 1.70703 -23.7783
c0 -91.6885 -74.5928 -166.28 -166.28 -166.28c-91.6885 0 -166.28 74.5928 -166.28 166.28c0 67.1602 40.0244 125.144 97.4697 151.361l-54.2383 152.381c-5.81152 16.3301 2.74609 34.3447 19.0752 40.1562c16.3291 5.8125 34.3438 -2.74609 40.1543 -19.0732
l32.2451 -90.5918h86.5723c17.333 0 31.4336 -14.1006 31.4336 -31.4346c0 -17.332 -14.0996 -31.4346 -31.4336 -31.4346h-64.1953l1.87109 -5.25488c2.42773 0.106445 4.86816 0.169922 7.32324 0.169922c59.9639 0 112.609 -31.9092 141.867 -79.6328h63.9072
c17.333 0 31.4346 -14.1016 31.4346 -31.4346v-88.5449h23.7783zM89.1035 412.863l54.0674 -151.913c7.00488 2.20117 14.209 3.94434 21.5762 5.20703l-5.07715 14.2646c-1.11133 3.12305 -0.635742 6.5918 1.27539 9.2998
c1.91211 2.70801 5.01855 4.31934 8.33398 4.31934h78.6523c6.08496 0 11.0361 4.95117 11.0361 11.0361c0 6.08594 -4.95117 11.0361 -11.0361 11.0361h-93.7686c-4.31445 0 -8.16309 2.71582 -9.6084 6.7793l-34.6572 97.3711
c-2.03906 5.73242 -8.36328 8.73633 -14.0986 6.69629c-5.73145 -2.03906 -8.73535 -8.36426 -6.69531 -14.0967zM192.93 -43.6016c80.4395 0 145.881 65.4414 145.881 145.881s-65.4424 145.88 -145.881 145.88c-80.4395 0 -145.882 -65.4414 -145.882 -145.88
s65.4414 -145.881 145.882 -145.881zM453.915 26.4756c6.08594 0 11.0371 4.9502 11.0381 11.0361c0 6.08594 -4.95117 11.0361 -11.0371 11.0361h-33.9775c-5.63281 0 -10.1982 4.56641 -10.1982 10.1992v98.7441c0 6.08496 -4.95117 11.0361 -11.0371 11.0361h-53.2764
c3.10254 -7.11426 5.72168 -14.4854 7.81445 -22.0723h24.2266c5.63281 0 10.1992 -4.56543 10.1992 -10.1982v-98.7451c0 -6.08594 4.95117 -11.0361 11.0361 -11.0361h55.2119zM192.93 215.472c62.4141 0 113.19 -50.7793 113.19 -113.192
s-50.7773 -113.188 -113.19 -113.188s-113.19 50.7773 -113.19 113.19s50.7773 113.19 113.19 113.19zM100.587 93.1426c1.72656 -17.5752 8.37695 -33.7227 18.5479 -47.0488l47.0488 47.0488h-65.5967zM180.606 10.3076v68.4092l-47.3975 -47.3965
c13.1836 -11.1133 29.4893 -18.626 47.3975 -21.0127zM180.606 113.541h-0.000976562v80.7129c-17.3857 -2.31836 -33.2656 -9.4668 -46.2383 -20.0508l17.9922 -17.9912c3.98438 -3.9834 3.9834 -10.4414 0 -14.4248
c-1.99121 -1.99023 -4.60254 -2.98633 -7.21191 -2.98633c-2.61035 0 -5.21973 0.994141 -7.21191 2.98633l-17.877 17.877c-10.2754 -13.0186 -17.1377 -28.8467 -19.2373 -46.123h79.7852zM264.853 43.7178c13.0391 15.9844 20.8701 36.374 20.8701 58.5586
c0 22.7275 -8.21875 43.5693 -21.834 59.7207l-25.5244 -25.5234c-1.99121 -1.99121 -4.60156 -2.9873 -7.21191 -2.9873s-5.21973 0.995117 -7.21191 2.9873c-3.9834 3.98242 -3.9834 10.4404 0 14.4238l25.1748 25.1748c-13.5938 10.375 -30.126 17.084 -48.1094 18.6426
v-81.1768h25.9004c5.63281 0 10.1992 -4.56543 10.1992 -10.1992c0 -5.63281 -4.56641 -10.1982 -10.1992 -10.1982h-25.9004v-83.2998c18.5146 1.60449 35.4922 8.66309 49.3076 19.5664l-27.4336 27.4336c-3.9834 3.98438 -3.98438 10.4424 0 14.4258
c3.9834 3.98242 10.4414 3.98242 14.4248 0zM260.884 113.54c5.63281 0 10.1992 -4.56543 10.1992 -10.1982c0 -5.63379 -4.56641 -10.1992 -10.1992 -10.1992h-3.18555c-5.63281 0 -10.1992 4.56543 -10.1992 10.1992c0 5.63281 4.56641 10.1982 10.1992 10.1982h3.18555z
" />
    <glyph glyph-name="uniF116" unicode="&#xf116;" 
d="M370.777 411.838c77.8711 0 141.223 -63.3525 141.223 -141.224c0 -33.7129 -17.3105 -72.2783 -51.4521 -114.625c-26.8994 -33.3662 -58.5137 -62.3203 -83.0498 -83.8174c-28.0703 -24.5938 -114.07 -96.8916 -114.937 -97.6191
c-1.89648 -1.59375 -4.22852 -2.3916 -6.56152 -2.3916c-2.33203 0 -4.66504 0.797852 -6.56152 2.3916c-0.866211 0.728516 -86.8672 73.0264 -114.937 97.6191c-24.5352 21.4971 -56.1504 50.4512 -83.0498 83.8174c-34.1416 42.3457 -51.4521 80.9111 -51.4521 114.625
c0 77.8711 63.3516 141.224 141.223 141.224c45.8125 0 88.4297 -22.2158 114.777 -58.9307c26.3477 36.7148 68.9648 58.9307 114.777 58.9307zM364.055 87.5146c31.5469 27.6396 127.547 111.749 127.546 183.1c0 66.623 -54.2012 120.825 -120.824 120.825
c-43.9971 0 -84.5566 -23.959 -105.849 -62.5264c-1.79395 -3.25195 -5.21484 -5.27051 -8.92773 -5.27051s-7.13281 2.01855 -8.92773 5.27051c-21.291 38.5674 -61.8516 62.5264 -105.849 62.5264c-66.623 0 -120.824 -54.2021 -120.824 -120.825
c0 -22.9346 9.92578 -47.1836 24.4326 -70.4551h55.1211c2.70508 0 5.2998 -1.0752 7.21191 -2.9873l21.3457 -21.3457v72.2695c0 4.125 2.48633 7.84473 6.2959 9.42188c3.80957 1.57812 8.19824 0.707031 11.1152 -2.20996l114.669 -114.67v138.055
c0 4.12598 2.48535 7.84375 6.2959 9.42285s8.19727 0.707031 11.1152 -2.20996l96.2002 -96.2002h9.28906c5.63281 0 10.1992 -4.56641 10.1992 -10.1992s-4.56641 -10.1992 -10.1992 -10.1992h-13.5146c-2.7041 0 -5.2998 1.0752 -7.21191 2.9873l-81.7754 81.7764
v-138.053c0 -4.12598 -2.48535 -7.84375 -6.2959 -9.42285c-1.26172 -0.521484 -2.58691 -0.776367 -3.90137 -0.776367c-2.6543 0 -5.26172 1.03516 -7.21387 2.98633l-114.669 114.669v-72.2695c0 -4.12598 -2.48535 -7.84375 -6.2959 -9.42285
c-3.81055 -1.57812 -8.19824 -0.706055 -11.1152 2.20996l-35.7705 35.7695h-36.9082c30.4141 -40.7998 70.7285 -76.127 89.126 -92.2471c23.3701 -20.4746 87.3398 -74.3887 108.055 -91.8232c20.7148 17.4355 84.6855 71.3486 108.055 91.8242zM423.267 189.705
c5.63379 0 10.1992 -4.56641 10.1992 -10.1992s-4.56543 -10.1992 -10.1992 -10.1992h-4.08008c-5.63281 0 -10.1982 4.56641 -10.1982 10.1992s4.56543 10.1992 10.1982 10.1992h4.08008z" />
    <glyph glyph-name="uniF10D" unicode="&#xf10d;" 
d="M481.136 406.617c17.0176 0 30.8643 -13.8447 30.8643 -30.8652v-367.505c0 -17.0195 -13.8447 -30.8643 -30.8643 -30.8643h-450.271c-17.0176 0 -30.8643 13.8447 -30.8643 30.8643v367.505c0 17.0205 13.8447 30.8652 30.8643 30.8652h450.271zM375.683 2.10938
c5.55273 0 10.0537 4.50098 10.0537 10.0537s-4.50098 10.0537 -10.0537 10.0537h-27.6396c-5.55176 0 -10.0527 -4.50098 -10.0527 -10.0537s4.50098 -10.0537 10.0527 -10.0537h27.6396zM455.243 2.10938c5.55371 0 10.0527 4.50098 10.0527 10.0537
s-4.50098 10.0537 -10.0527 10.0537h-27.6396c-5.55273 0 -10.0537 -4.50098 -10.0537 -10.0537s4.50098 -10.0537 10.0537 -10.0537h27.6396zM476.095 39.0459v153.61s0.0634766 1.98535 -2.27051 1.98535h-56.3105c-2.03516 0 -2.50195 -1.39258 -2.50195 -1.39258
l-14.3174 -28.9561c-1.78516 -3.60547 -5.39746 -5.66602 -9.21289 -5.24707c-3.81348 0.416992 -6.89844 3.20605 -7.86035 7.1084l-16.7646 67.5918s-0.567383 3.37207 -1.38184 0.708984c-4.27148 -13.959 -16.876 -55.9062 -16.876 -55.9062
c-1.33398 -4.41992 -5.4873 -7.50293 -10.1006 -7.50293h-42.9756c-4.07715 0 -8.01953 2.46191 -9.80859 6.12402l-13.1816 26.9229s-1.69238 4.24219 -2.88281 0.145508c-6.5791 -22.6406 -26.6611 -90.4609 -26.6611 -90.4609
c-1.37598 -4.6748 -5.31543 -6.74414 -8.66504 -6.74414c-0.0498047 0 -0.0986328 0.000976562 -0.149414 0.000976562c-3.38086 0.0615234 -7.33887 2.27246 -8.55957 7.06738l-17.6973 69.7305s-0.566406 3.03223 -3.5293 3.03223h-39.8633
c-4.29297 0 -8.28906 2.66309 -9.94141 6.625l-12.3545 29.6475s-1.30371 2.58398 -2.42871 -1.32812c-4.65332 -16.1816 -17.9668 -64.9033 -17.9668 -64.9033c-0.9375 -3.39941 -3.58789 -5.99023 -6.91211 -6.75879
c-3.3291 -0.768555 -6.84375 0.396484 -9.18359 3.04199l-15.9443 18.0342s-3.44434 3.90918 -7.75293 3.90918h-41.6338c-4.68359 0 -4.50098 -4.25684 -4.50098 -4.25684v-131.829h440.189zM476.095 213.9v131.057h-440.189v-148.591s-0.182617 -4.00098 4.84375 -4.00098
h48.0342c3.28125 0 6.66992 -1.52734 8.84375 -3.98633l7.55078 -8.53906s3.96973 -5.0166 5.83594 2.58398c4.39062 17.876 19.6416 70.958 19.6416 70.958c1.08789 3.93848 4.30469 6.64551 8.19531 6.88965c3.88867 0.248047 7.42188 -2.03516 8.99805 -5.81152
l19.8096 -47.5439s1.27246 -2.81641 5.3125 -2.81641h39.4434c4.71387 0 8.97754 -3.31543 10.1416 -7.88281c0 0 8.66992 -33.6631 11.4004 -44.9229c1.12891 -4.65527 2.09082 -0.106445 2.09082 -0.106445l23.9844 81.3779
c1.12207 3.78906 4.26953 6.43164 8.02246 6.74414c3.75586 0.326172 7.29297 -1.77051 9.02246 -5.30957l21.5088 -43.9258s0.921875 -1.79297 3.01562 -1.79297h29.501c2.69336 0 2.9834 1.82422 2.9834 1.82422l24.2031 80.1777
c1.43164 4.74023 5.46875 6.7959 8.86719 6.68555c3.37988 -0.0878906 7.32422 -2.3252 8.50879 -7.13086l18.7939 -75.7803s0.435547 -2.7168 1.66211 -0.128906c1.41602 2.99023 5.86523 11.8613 5.86523 11.8613c1.80371 3.6416 5.73926 6.08594 9.79785 6.08594h62.043
s2.26855 -0.129883 2.26855 2.02441z" />
    <glyph glyph-name="uniF107" unicode="&#xf107;" 
d="M255.993 -7.53906c-169.331 0 -254.481 168.543 -255.321 170.236c-0.439453 0.891602 -0.671875 1.87305 -0.671875 2.86816v1.71875c0 0.995117 0.232422 1.96484 0.671875 2.85645c0.827148 1.69336 85.9902 170.262 255.321 170.262
c169.345 0 254.508 -168.556 255.348 -170.262c0.439453 -0.891602 0.671875 -1.87402 0.671875 -2.85645v-1.71875c0 -0.995117 -0.232422 -1.96387 -0.671875 -2.85547c-0.839844 -1.70605 -86.0029 -170.249 -255.348 -170.249zM13.2979 166.419
c10.0156 -18.6865 91.3145 -161.035 242.695 -161.035c151.575 0 232.72 142.349 242.709 161.035c-10.0029 18.6738 -91.3018 161.061 -242.709 161.061c-151.562 0 -232.692 -142.361 -242.695 -161.061zM255.993 82.4053c-45.8506 0 -83.1465 37.3096 -83.1465 83.1865
c0 45.8506 37.2959 83.1602 83.1465 83.1602c45.8643 0 83.1738 -37.3096 83.1738 -83.1602c-0.0136719 -45.877 -37.3223 -83.1865 -83.1738 -83.1865zM255.993 235.815c-38.7168 0 -70.2236 -31.5059 -70.2236 -70.2363c0 -38.7441 31.5068 -70.2637 70.2236 -70.2637
c38.7305 0 70.25 31.5195 70.25 70.2637c-0.0126953 38.7305 -31.5195 70.2363 -70.25 70.2363zM228.273 165.592c0 15.3164 12.417 27.7324 27.7334 27.7324s27.7324 -12.416 27.7324 -27.7324s-12.416 -27.7334 -27.7324 -27.7334s-27.7334 12.417 -27.7334 27.7334z
M256.007 327.479c-3.56738 0 -6.46191 2.89453 -6.46191 6.46094v51.1367c0 3.56738 2.89453 6.46191 6.46191 6.46191c3.56641 0 6.46094 -2.89453 6.46094 -6.46191v-51.1367c0 -3.5791 -2.89453 -6.46094 -6.46094 -6.46094zM59.9502 237.548
c-1.6543 0 -3.30859 0.632812 -4.5752 1.88672l-36.1455 36.1455c-2.51953 2.52051 -2.51953 6.61621 0 9.13672c2.52051 2.51953 6.61621 2.51953 9.13672 0l36.1455 -36.1455c2.52051 -2.52051 2.52051 -6.61719 0 -9.13672
c-1.25293 -1.25391 -2.90723 -1.88672 -4.56152 -1.88672zM145.644 302.486c-2.24902 0 -4.43262 1.17578 -5.62207 3.25586l-25.29 44.4297c-1.77051 3.10156 -0.685547 7.05664 2.41602 8.81348c3.07617 1.77051 7.05664 0.685547 8.81348 -2.41602l25.291 -44.4297
c1.77051 -3.10156 0.68457 -7.04297 -2.42969 -8.81348c-1.00781 -0.568359 -2.09375 -0.839844 -3.17871 -0.839844zM452.037 237.548c-1.6543 0 -3.30859 0.632812 -4.5752 1.88672c-2.51953 2.51953 -2.51953 6.61621 0 9.13672l36.1465 36.1455
c2.51953 2.51953 6.61621 2.51953 9.13574 0c2.52051 -2.52051 2.52051 -6.61621 0 -9.13672l-36.1455 -36.1455c-1.2666 -1.25391 -2.9209 -1.88672 -4.56152 -1.88672zM366.344 302.486c-1.08594 0 -2.18359 0.271484 -3.19238 0.839844
c-3.10156 1.77051 -4.18652 5.71191 -2.42871 8.81348l25.3027 44.4297c1.7832 3.10156 5.69922 4.18652 8.81348 2.41602c3.11523 -1.77051 4.1875 -5.71191 2.41699 -8.81348l-25.3037 -44.4297c-1.20117 -2.08008 -3.37305 -3.25586 -5.6084 -3.25586z" />
    <glyph glyph-name="uniF106" unicode="&#xf106;" 
d="M255.993 18.0361c-169.331 0 -254.481 168.543 -255.321 170.235c-0.439453 0.891602 -0.671875 1.86133 -0.671875 2.85645v1.71875c0 0.995117 0.232422 1.96387 0.671875 2.85547c0.839844 1.70605 85.9902 170.262 255.321 170.262
c169.345 0 254.508 -168.556 255.348 -170.262c0.439453 -0.891602 0.671875 -1.87305 0.671875 -2.85547v-1.71875c0 -0.995117 -0.232422 -1.96484 -0.671875 -2.85645c-0.852539 -1.70605 -86.0029 -170.235 -255.348 -170.235zM13.2979 191.98
c10.0029 -18.6865 91.3145 -161.034 242.683 -161.034c151.575 0 232.719 142.348 242.709 161.034c-10.0029 18.6738 -91.3018 161.061 -242.709 161.061c-151.549 0 -232.693 -142.36 -242.683 -161.061zM255.993 107.968c-45.8379 0 -83.1465 37.3086 -83.1465 83.1855
c0 45.8516 37.2959 83.1602 83.1465 83.1602c45.8516 0 83.1738 -37.3086 83.1738 -83.1602c-0.0136719 -45.8643 -37.3223 -83.1855 -83.1738 -83.1855zM255.993 261.391c-38.7168 0 -70.2236 -31.5068 -70.2236 -70.2373c0 -38.7432 31.5068 -70.2627 70.2236 -70.2627
c38.7305 0 70.25 31.5195 70.25 70.2627c-0.0126953 38.7305 -31.5195 70.2373 -70.25 70.2373zM228.273 191.153c0 15.3164 12.417 27.7334 27.7334 27.7334s27.7324 -12.417 27.7324 -27.7334s-12.416 -27.7324 -27.7324 -27.7324s-27.7334 12.416 -27.7334 27.7324z" />
    <glyph glyph-name="uniF118" unicode="&#xf118;" 
d="M110.937 277.336c-4.70996 0 -8.5332 3.82227 -8.5332 8.5332v85.3311c0 43.7832 33.0146 76.7988 76.7988 76.7988h162.129c41.4707 0 68.2656 -30.1475 68.2656 -76.7988v-85.332c0 -4.70996 -3.82324 -8.53223 -8.5332 -8.53223h-290.127zM119.47 371.2v-76.7979
h273.06v76.7979c0 28.876 -13.4473 59.7324 -51.1982 59.7324h-162.13c-34.6104 0 -59.7314 -25.1221 -59.7314 -59.7324zM366.931 362.667c4.70996 0 8.5332 -3.82227 8.5332 -8.5332c0 -4.70996 -3.82324 -8.53223 -8.5332 -8.53223h-68.2646
c-0.299805 0 -0.555664 0.144531 -0.845703 0.170898c-3.89941 -19.5332 -21.1621 -34.3037 -41.8213 -34.3037c-20.6582 0 -37.9209 14.7705 -41.8203 34.3037c-0.290039 -0.0263672 -0.545898 -0.170898 -0.845703 -0.170898h-68.2646
c-4.70996 0 -8.5332 3.82227 -8.5332 8.53223s3.82324 8.5332 8.5332 8.5332h68.2646c0.299805 0 0.555664 -0.145508 0.845703 -0.170898c3.89941 19.5322 21.1621 34.3027 41.8203 34.3027c20.6592 0 37.9219 -14.7705 41.8213 -34.3027
c0.290039 0.0253906 0.545898 0.170898 0.845703 0.170898h68.2646zM256.001 328.534c14.1133 0 25.5986 11.4863 25.5986 25.5996c0 14.1143 -11.4854 25.5996 -25.5986 25.5996c-14.1143 0 -25.5996 -11.4854 -25.5996 -25.5996
c0 -14.1133 11.4854 -25.5996 25.5996 -25.5996zM120.988 192.985c-10.7178 3.05469 -18.585 12.9365 -18.582 24.6172v34.1328c0 4.70996 3.82227 8.53223 8.53223 8.53223s8.5332 -3.82227 8.5332 -8.53223v-34.1328c0 -4.70117 3.83105 -8.53223 8.53223 -8.53223
c4.00293 0 7.4668 -2.78223 8.3291 -6.68164c0.0849609 -0.401367 4.80371 -21.3926 11.5713 -44.6455c0.220703 0.0166016 0.408203 0.12793 0.630859 0.12793c0.630859 0 63.6904 0.213867 104.291 16.4609c2.04883 0.801758 4.30176 0.801758 6.34961 0
c40.668 -16.2725 103.788 -16.4609 104.419 -16.4609c0.179688 0 0.333008 -0.0927734 0.512695 -0.101562c6.75879 23.2441 11.4775 44.2188 11.5625 44.6201c0.861328 3.89941 4.32617 6.68164 8.32812 6.68164c4.70117 0 8.53223 3.83105 8.53223 8.53223v34.1328
c0 4.70996 3.82324 8.53223 8.5332 8.53223s8.5332 -3.82227 8.5332 -8.53223v-34.1328c0 -11.6816 -7.86816 -21.5635 -18.5859 -24.6182c-4.37793 -18.6104 -18.9102 -76.875 -34.0479 -99.582c-10.9727 -16.4512 -36.667 -54.9951 -100.964 -54.9951
c-64.2959 0 -89.9893 38.5439 -100.963 54.9951c-15.1377 22.707 -29.6699 80.9717 -34.0479 99.582zM256.001 157.257c-37.376 -13.9512 -87.6709 -16.0674 -102.902 -16.3926c4.99219 -15.29 10.6064 -29.6953 16.1367 -37.9893
c10.2568 -15.3857 31.5986 -47.4014 86.7656 -47.4014c55.166 0 76.5078 32.0156 86.7646 47.4014c5.53027 8.30371 11.1436 22.707 16.1445 37.999c-15.4023 0.323242 -65.6289 2.46582 -102.909 16.3828zM511.56 -52.7598
c1.49316 -4.47266 -0.930664 -9.30273 -5.40137 -10.7959c-0.896484 -0.297852 -1.80957 -0.435547 -2.69727 -0.435547c-3.57422 0 -6.90234 2.26074 -8.09766 5.83691l-8.5332 25.5996c-5.18848 15.5391 -12.2871 36.8291 -136.966 36.8291v0.255859
c-3.84082 0.734375 -11.5967 4.54004 -32.8867 15.1807l-52.4453 -44.9609v-30.208c0 -4.70996 -3.82324 -8.5332 -8.5332 -8.5332c-4.70898 0 -8.53223 3.82324 -8.53223 8.5332v30.207l-52.4453 44.9609l-29.0723 -14.5488
c-1.17676 -0.588867 -2.49121 -0.895508 -3.81348 -0.895508h-0.0771484c-5.95605 0 -11.5537 -0.0605469 -16.9893 -0.162109v-1.04102c14.6758 -3.81445 25.5986 -17.0664 25.5986 -32.9209c0 -18.8242 -15.3086 -34.1328 -34.1318 -34.1328
s-34.1328 15.3076 -34.1328 34.1328c0 15.8545 10.9229 29.1074 25.5996 32.9209v0.580078c-91.9102 -3.60059 -98.165 -22.2197 -102.832 -36.1973l-8.5332 -25.5996c-1.49414 -4.47168 -6.31445 -6.90332 -10.7949 -5.40137
c-4.47168 1.49316 -6.89453 6.32324 -5.40137 10.7939l8.53223 25.5996c9.60938 28.7744 33.5107 45.4824 125.643 48.1191c0.639648 0.145508 1.2373 0.383789 1.91992 0.383789c0.520508 0 0.964844 -0.205078 1.45117 -0.290039
c6.99609 0.171875 14.3438 0.273438 22.1338 0.282227l32.333 16.1787c3.05469 1.52734 6.7666 1.0752 9.36914 -1.16113l54.1777 -46.4365l54.1768 46.4365c2.61133 2.23633 6.30664 2.68066 9.36914 1.16113c0 0 25.3525 -12.6885 32.333 -16.1709
c113.448 -0.195312 140.712 -17.2275 151.147 -48.502zM153.603 -29.8574c0 9.41113 -7.6543 17.0664 -17.0664 17.0664c-9.41309 0 -17.0664 -7.6543 -17.0664 -17.0664c0 -9.41309 7.6543 -17.0674 17.0664 -17.0674c9.41309 0 17.0664 7.65527 17.0664 17.0674z
M281.6 226.137h34.1318c4.70996 0 8.53223 -3.82324 8.53223 -8.5332c0 -4.70898 -3.82227 -8.53223 -8.53223 -8.53223h-8.5332c0 -4.70996 -3.82324 -8.5332 -8.53223 -8.5332c-4.70996 0 -8.5332 3.82324 -8.5332 8.5332h-8.5332
c-4.70996 0 -8.53223 3.82324 -8.53223 8.53223c0 4.70996 3.82227 8.5332 8.53223 8.5332zM196.268 226.137h34.1318c4.70996 0 8.53223 -3.82324 8.53223 -8.5332c0 -4.70898 -3.82227 -8.53223 -8.53223 -8.53223h-8.5332c0 -4.70996 -3.82324 -8.5332 -8.5332 -8.5332
s-8.53223 3.82324 -8.53223 8.5332h-8.5332c-4.70996 0 -8.53223 3.82324 -8.53223 8.53223c0 4.70996 3.82227 8.5332 8.53223 8.5332z" />
    <glyph glyph-name="uniF101" unicode="&#xf101;" 
d="M503.697 216.105c11.0693 -14.1934 11.0693 -34.0156 0 -48.2109c-28.7363 -36.8438 -65.9561 -67.3174 -107.637 -88.1279c-42.5479 -21.2432 -88.3223 -32.2637 -136.104 -32.8428c-1.31543 -0.0361328 -6.59961 -0.0361328 -7.91602 0
c-47.7822 0.578125 -93.5557 11.5996 -136.104 32.8428c-41.6807 20.8105 -78.9004 51.2852 -107.636 88.1279c-11.0693 14.1934 -11.0693 34.0176 0 48.2109c28.7363 36.8438 65.9551 67.3174 107.636 88.1279c42.5479 21.2432 88.3223 32.2637 136.104 32.8428
c1.31641 0.0361328 6.60059 0.0361328 7.91602 0c47.7832 -0.578125 93.5566 -11.5996 136.104 -32.8428c41.6807 -20.8105 78.9014 -51.2852 107.637 -88.1279zM125.242 98.4014c11.0547 -5.51855 22.3457 -10.293 33.8428 -14.333
c-29.5811 26.5869 -48.2168 65.1221 -48.2168 107.933c0 42.8076 18.6348 81.3398 48.2129 107.928c-11.4971 -4.04004 -22.7852 -8.8125 -33.8389 -14.3301c-38.9209 -19.4326 -73.6797 -47.8926 -100.518 -82.3027c-5.18652 -6.65137 -5.18652 -15.9404 0 -22.5918
c26.8389 -34.4102 61.5977 -62.8701 100.518 -82.3027zM255.999 67.6973c68.542 0 124.305 55.7617 124.305 124.304c0 68.541 -55.7627 124.304 -124.305 124.304c-68.541 0 -124.304 -55.7617 -124.304 -124.303c0 -68.542 55.7627 -124.305 124.304 -124.305z
M487.274 180.705c5.18652 6.65137 5.18652 15.9404 0.000976562 22.5928c-26.8389 34.4102 -61.5977 62.8701 -100.518 82.3027c-11.0566 5.52051 -22.3496 10.2988 -33.8496 14.3398c29.583 -26.5879 48.2227 -65.125 48.2227 -107.938
c0 -42.791 -18.6211 -81.3115 -48.1787 -107.898c11.4834 4.03613 22.7637 8.78711 33.8047 14.2988c38.9209 19.4326 73.6797 47.8926 100.518 82.3027zM255.999 245.196c29.333 0 53.1963 -23.8633 53.1953 -53.1943c0 -29.332 -23.8633 -53.1953 -53.1953 -53.1953
c-29.3311 0 -53.1943 23.8633 -53.1943 53.1953c0 29.3311 23.8633 53.1943 53.1943 53.1943zM255.999 159.634c17.8477 0 32.3682 14.5186 32.3672 32.3682c0 17.8477 -14.5195 32.3662 -32.3672 32.3662c-17.8486 0 -32.3672 -14.5186 -32.3672 -32.3662
c0 -17.8496 14.5205 -32.3682 32.3672 -32.3682z" />
    <glyph glyph-name="uniF108" unicode="&#xf108;" 
d="M512 274.941c0 -32.9619 -9.9707 -67.3965 -29.6396 -102.484c13.4111 -21.1318 21.1875 -46.1758 21.1875 -73.0029c0 -75.3418 -61.2939 -136.636 -136.635 -136.636c-27.1357 0 -52.4492 7.95215 -73.7324 21.6475
c-9.38379 -6.48926 -18.9619 -12.8936 -28.5869 -19.1133l-8.59375 -5.55371l-8.59375 5.55371c-43.1406 27.876 -105.206 72.291 -155.903 125.572c-60.7168 63.8125 -91.5029 125.725 -91.5029 184.017c0 82.3027 66.958 149.261 149.26 149.261
c23.8721 0 46.6885 -5.47266 67.8145 -16.2666c14.3818 -7.34766 27.5908 -17.1074 38.9258 -28.6895c11.3359 11.582 24.5449 21.3428 38.9258 28.6895c21.125 10.7939 43.9424 16.2666 67.8145 16.2666c82.3018 0 149.26 -66.958 149.26 -149.261zM256 -2.43555
c3.95996 2.61328 7.89746 5.25879 11.8164 7.91797c-23.251 24.5078 -37.5371 57.6006 -37.5371 93.9688c0 75.3418 61.2939 136.636 136.635 136.636c36.1943 0 69.1416 -14.1523 93.6143 -37.2061c13.1475 26.3994 19.8027 51.9092 19.8027 76.0605
c0 64.8398 -52.751 117.591 -117.59 117.591c-37.3301 0 -71.6211 -17.1475 -94.0801 -47.0439l-12.6611 -16.8535l-12.6611 16.8535c-22.459 29.8965 -56.749 47.0439 -94.0791 47.0439c-64.8389 0 -117.59 -52.751 -117.59 -117.591
c0 -49.8926 27.8496 -104.46 82.7773 -162.187c45.3076 -47.6182 100.494 -88.0977 141.553 -115.19zM366.913 -5.5127c57.8779 0 104.965 47.0869 104.965 104.965c0 57.8789 -47.0879 104.966 -104.965 104.966s-104.965 -47.0869 -104.965 -104.966
c0 -57.8779 47.0869 -104.965 104.965 -104.965zM382.748 164.498v-49.2119h49.2109v-31.6699h-49.2109v-49.21h-31.6699v49.21h-49.2109v31.6699h49.2109v49.2119h31.6699z" />
    <glyph glyph-name="uniF11B" unicode="&#xf11b;" 
d="M151.265 401.293c0 25.7959 20.9111 46.707 46.707 46.707s46.707 -20.9111 46.707 -46.707s-20.9111 -46.707 -46.707 -46.707s-46.707 20.9111 -46.707 46.707zM310.611 32.7578c4.80664 -2.50781 6.89648 -8.56836 4.38867 -13.8975
c-24.3457 -50.3643 -75.9639 -82.8604 -132.075 -82.8604c-80.7705 0 -146.599 65.8281 -146.599 146.704c0 67.3955 45.8711 125.91 111.699 142.21c5.3291 1.67188 10.9717 -1.98535 12.2256 -7.31445c1.67188 -5.32812 -1.98535 -10.9707 -7.31445 -12.2246
c-56.5293 -14.2109 -95.9219 -64.5752 -95.9219 -122.671c0 -69.4863 56.5293 -126.328 126.015 -126.328c48.3789 0 92.6826 28.0029 113.79 71.4707c2.82129 5.3291 8.88086 7.31445 13.792 4.91113zM470.69 25.0254c8.14941 -10.2402 6.05957 -25.5996 -4.49316 -33.75
l-44.0947 -33.959c-10.9717 -8.56836 -26.8545 -5.95605 -34.6914 5.53711l-91.0098 134.479h-98.3252c-12.957 0 -23.9287 10.5537 -23.9287 23.9287v174.289c0 12.9561 10.5537 23.9277 23.9287 23.9277c12.957 0 23.9277 -10.5537 23.9277 -23.9277v-50.3643h99.5791
c12.957 0 23.9277 -10.5537 23.9277 -23.9287c0 -12.9561 -10.5527 -23.9277 -23.9277 -23.9277h-99.5791v-51.6182h86.9355c8.15039 0 15.4648 -4.0752 19.958 -10.5537l84.1143 -124.343l23.9277 18.7041c10.5537 8.15039 25.6006 6.06055 33.751 -4.49316z" />
    <glyph glyph-name="uniF109" unicode="&#xf109;" 
d="M416.914 269.646v-77.6445h77.6445v-67.5166h-77.6445v-77.6436h-67.5166v77.6436h-77.6436v67.5166h77.6436v77.6445h67.5166zM237.995 225.761v-135.033h77.6445v-77.4551l-59.6396 -72.208l-224.156 271.39c-19.9023 24.333 -31.8438 55.4287 -31.8438 89.3193
c0 77.9629 63.1875 141.162 141.133 141.162c47.3594 0 89.2676 -23.3379 114.867 -59.1367c25.5996 35.7979 67.5078 59.126 114.867 59.126c77.9453 0 141.133 -63.2129 141.133 -141.175c0 -27.9697 -8.13867 -53.4844 -22.1689 -75.9893h-39.1582v77.6436h-135.033
v-77.6436h-77.6445z" />
  </font>
</defs></svg>
